inputs, outputs, ngates, nxors, size, time_encrypt_in, time_decrypt_in, time_garble, time_eval, time_send
320, 32, 97691, 70619, 4437428, 763103, 190039, 18484741, 3677605, 47411974
320, 32, 97691, 70619, 4437428, 385007, 518458, 9111354, 3701160, 21884270
320, 32, 97691, 70619, 4437428, 549049, 370686, 26698797, 3781271, 41654624
320, 32, 97691, 70619, 4437428, 387991, 304418, 21516701, 3474897, 40892707
320, 32, 97691, 70619, 4437428, 477958, 334992, 32219426, 4739356, 46389045
640, 32, 206201, 149049, 9365188, 1071012, 319502, 45783962, 6843303, 99647376
640, 32, 206201, 149049, 9365188, 700191, 423160, 33947828, 7508788, 73023548
640, 32, 206201, 149049, 9365188, 627708, 319632, 36429348, 6873145, 75427667
640, 32, 206201, 149049, 9365188, 1208236, 495780, 78897208, 6844387, 98004043
640, 32, 206201, 149049, 9365188, 838282, 384921, 52687690, 6770377, 77049381
960, 32, 314711, 227479, 14292948, 1523125, 617041, 40137516, 10427883, 107468242
960, 32, 314711, 227479, 14292948, 1293648, 574359, 45929401, 10352480, 93817192
960, 32, 314711, 227479, 14292948, 950733, 568120, 56995116, 10351003, 101605984
960, 32, 314711, 227479, 14292948, 1049730, 828688, 45838247, 10459936, 75897798
960, 32, 314711, 227479, 14292948, 923380, 462963, 59104271, 10303018, 89798928
1280, 32, 423221, 305909, 19220708, 1721137, 643754, 54900786, 17299775, 163150976
1280, 32, 423221, 305909, 19220708, 1625524, 597785, 79228312, 15600506, 150160624
1280, 32, 423221, 305909, 19220708, 1194389, 634455, 89408038, 13913505, 161207422
1280, 32, 423221, 305909, 19220708, 1512327, 716285, 111561634, 13920899, 163402567
1280, 32, 423221, 305909, 19220708, 1219909, 1342291, 75874052, 15305060, 117905911
1600, 32, 531731, 384339, 24148468, 2310424, 767987, 124662066, 17481023, 254266206
1600, 32, 531731, 384339, 24148468, 1710081, 839391, 122645568, 17592553, 197686248
1600, 32, 531731, 384339, 24148468, 1670755, 855956, 136137180, 17538248, 209309136
1600, 32, 531731, 384339, 24148468, 1843786, 715632, 98672298, 18689509, 159063812
1600, 32, 531731, 384339, 24148468, 1317147, 989824, 109846880, 17771946, 154270259
1920, 32, 640241, 462769, 29076228, 3209234, 2287500, 86850551, 24125859, 258418417
1920, 32, 640241, 462769, 29076228, 2015775, 874082, 81667671, 21121333, 179051256
1920, 32, 640241, 462769, 29076228, 1793604, 999165, 57673857, 21092556, 121298770
1920, 32, 640241, 462769, 29076228, 3076205, 1387394, 83175631, 27869013, 160934219
1920, 32, 640241, 462769, 29076228, 1708778, 1503643, 80562268, 24390202, 128849665
2240, 32, 748751, 541199, 34003988, 3248341, 1077125, 74459614, 27277070, 226490769
2240, 32, 748751, 541199, 34003988, 3654405, 1022291, 79452530, 30039497, 208254391
2240, 32, 748751, 541199, 34003988, 2029529, 1410348, 69923422, 29573207, 169193833
2240, 32, 748751, 541199, 34003988, 2976491, 1625091, 69178461, 26330843, 179097661
2240, 32, 748751, 541199, 34003988, 2060880, 1764878, 83721767, 24644272, 140524440
2560, 32, 857261, 619629, 38931748, 3863464, 3564658, 83283288, 38266771, 310089959
320, 32, 97691, 70619, 4437428, 1006191, 174170, 33580096, 3760215, 66715867
320, 32, 97691, 70619, 4437428, 683900, 421856, 29432541, 3379500, 49633933
320, 32, 97691, 70619, 4437428, 433833, 226681, 36216597, 3441340, 56842415
320, 32, 97691, 70619, 4437428, 459216, 303789, 8856104, 3471723, 21776032
320, 32, 97691, 70619, 4437428, 420405, 201732, 15251197, 4757087, 27153486
640, 32, 206201, 149049, 9365188, 738787, 324179, 41706753, 7504548, 99234860
640, 32, 206201, 149049, 9365188, 712350, 450823, 38132703, 7112319, 75993626
640, 32, 206201, 149049, 9365188, 724124, 653051, 39635737, 9536170, 67354856
640, 32, 206201, 149049, 9365188, 651712, 640461, 43120639, 7013446, 74293009
640, 32, 206201, 149049, 9365188, 696552, 538573, 44738955, 7289012, 85369877
960, 32, 314711, 227479, 14292948, 1419544, 476838, 44929679, 10439591, 131635422
960, 32, 314711, 227479, 14292948, 1806042, 656806, 88273149, 11480048, 137160407
960, 32, 314711, 227479, 14292948, 999588, 584120, 63302591, 10854589, 120038902
960, 32, 314711, 227479, 14292948, 1038670, 562747, 48031950, 10819843, 105253319
960, 32, 314711, 227479, 14292948, 1141227, 978491, 111415656, 11103586, 146719133
1280, 32, 423221, 305909, 19220708, 1852389, 642594, 99680307, 15776315, 208800465
1280, 32, 423221, 305909, 19220708, 1815662, 834563, 53209714, 15232055, 130617525
1280, 32, 423221, 305909, 19220708, 1352725, 752701, 51337652, 15909877, 106346354
1280, 32, 423221, 305909, 19220708, 1463340, 1295586, 48932966, 15842214, 115720695
1280, 32, 423221, 305909, 19220708, 1276976, 1114664, 67110843, 14070915, 108148128
1600, 32, 531731, 384339, 24148468, 2353943, 1163045, 57454796, 20873678, 187483818
1600, 32, 531731, 384339, 24148468, 2022827, 744020, 56397532, 19868694, 147921221
1600, 32, 531731, 384339, 24148468, 1620942, 1304445, 57809902, 19363371, 133913471
1600, 32, 531731, 384339, 24148468, 1916501, 1184991, 55611245, 17908876, 135262333
1600, 32, 531731, 384339, 24148468, 1652956, 1298325, 51133470, 20784872, 105296103
1920, 32, 640241, 462769, 29076228, 3758090, 1035849, 103121897, 21495114, 261905809
1920, 32, 640241, 462769, 29076228, 2401808, 960329, 61867475, 23082707, 130925927
1920, 32, 640241, 462769, 29076228, 1795112, 926799, 71867335, 21534294, 144564880
1920, 32, 640241, 462769, 29076228, 2689069, 1194253, 92160158, 26550607, 176600569
1920, 32, 640241, 462769, 29076228, 1770151, 1422027, 85801232, 24481067, 174382773
2240, 32, 748751, 541199, 34003988, 3580546, 1253466, 72671764, 28314499, 223166434
2240, 32, 748751, 541199, 34003988, 2664155, 1092304, 78127766, 28335391, 209210983
2240, 32, 748751, 541199, 34003988, 2067015, 1595908, 70912322, 27589453, 171946647
2240, 32, 748751, 541199, 34003988, 4587031, 1675584, 91532008, 28543842, 207459326
2240, 32, 748751, 541199, 34003988, 2115390, 1105536, 88827463, 28658937, 187680682
2560, 32, 857261, 619629, 38931748, 3738962, 1340539, 92127167, 30863642, 267041481
2560, 32, 857261, 619629, 38931748, 3169176, 2115372, 88871680, 31811447, 209353840
2560, 32, 857261, 619629, 38931748, 2374661, 1252077, 78964020, 28898622, 213411224
2560, 32, 857261, 619629, 38931748, 3449781, 1265169, 103860938, 29345056, 196181050
2560, 32, 857261, 619629, 38931748, 2327761, 1924262, 82295784, 28562853, 181191186
2880, 32, 965771, 698059, 43859508, 4190125, 1576695, 100804398, 34869113, 321136336
2880, 32, 965771, 698059, 43859508, 3052650, 1309641, 90636700, 32426921, 206351666
2880, 32, 965771, 698059, 43859508, 2474157, 1450468, 89067280, 40530151, 255944053
2880, 32, 965771, 698059, 43859508, 2702137, 1451827, 88169586, 32651017, 234391633
2880, 32, 965771, 698059, 43859508, 2754512, 1996230, 109643253, 35871905, 201685585
3200, 32, 1074281, 776489, 48787268, 4010017, 4481070, 100403614, 38519795, 337319222
3200, 32, 1074281, 776489, 48787268, 3315220, 1538566, 99830515, 39621611, 215343802
3200, 32, 1074281, 776489, 48787268, 3047944, 2419557, 98898220, 42904531, 258709643
3200, 32, 1074281, 776489, 48787268, 2961096, 2295903, 99678622, 36494842, 241825628
3200, 32, 1074281, 776489, 48787268, 2898070, 2189182, 102879577, 35889404, 232139844
3520, 32, 1182791, 854919, 53715028, 4632168, 1754166, 110971931, 46903477, 366000668
3520, 32, 1182791, 854919, 53715028, 3861791, 1696086, 107499839, 42208508, 286682225
3520, 32, 1182791, 854919, 53715028, 3208874, 1599369, 106753622, 40003616, 251281611
3520, 32, 1182791, 854919, 53715028, 4828479, 2599278, 104794553, 39998916, 305165844
3520, 32, 1182791, 854919, 53715028, 3254931, 2619783, 111793189, 39709314, 263157288
3840, 32, 1291301, 933349, 58642788, 6232166, 1897928, 128184647, 43469287, 416177122
3840, 32, 1291301, 933349, 58642788, 4128216, 2547467, 120282433, 43651175, 272860206
3840, 32, 1291301, 933349, 58642788, 3470674, 1956629, 116489053, 52219338, 346415263
3840, 32, 1291301, 933349, 58642788, 3507220, 1803501, 118326683, 46824672, 309742261
3840, 32, 1291301, 933349, 58642788, 3521717, 2791369, 119234659, 43286426, 233705403
4160, 32, 1399811, 1011779, 63570548, 5717317, 2148617, 163905409, 50373840, 471722304
4160, 32, 1399811, 1011779, 63570548, 4567897, 3049322, 124258304, 47481804, 286868515
4160, 32, 1399811, 1011779, 63570548, 3757227, 3021847, 131186043, 46995641, 330252607
4160, 32, 1399811, 1011779, 63570548, 3787833, 3031672, 125950705, 51849651, 305324248
4160, 32, 1399811, 1011779, 63570548, 3845070, 1991529, 127397392, 53183209, 341875639
4480, 32, 1508321, 1090209, 68498308, 5832530, 6626517, 134760889, 62754466, 473516297
4480, 32, 1508321, 1090209, 68498308, 4980700, 2132193, 136517069, 57556181, 328412024
4480, 32, 1508321, 1090209, 68498308, 4124954, 2260234, 132959092, 54808940, 382124315
4480, 32, 1508321, 1090209, 68498308, 4162022, 2261085, 140093450, 50784423, 390918503
4480, 32, 1508321, 1090209, 68498308, 4064092, 3486907, 132168843, 54620284, 315995977
4800, 32, 1616831, 1168639, 73426068, 5969337, 2393854, 141828257, 64298397, 499684165
4800, 32, 1616831, 1168639, 73426068, 5017124, 2267008, 139705698, 58300341, 373970361
4800, 32, 1616831, 1168639, 73426068, 4405106, 2786068, 138114345, 58262695, 360728034
4800, 32, 1616831, 1168639, 73426068, 4549002, 3511931, 151396113, 68352894, 385220204
4800, 32, 1616831, 1168639, 73426068, 4196976, 3574684, 138779030, 58227442, 344499501
5120, 32, 1725341, 1247069, 78353828, 5561282, 2407142, 148998592, 62906922, 509777566
5120, 32, 1725341, 1247069, 78353828, 5141616, 2699534, 148159690, 60319096, 350887378
5120, 32, 1725341, 1247069, 78353828, 4524162, 2308498, 144606304, 61583848, 366080517
5120, 32, 1725341, 1247069, 78353828, 4547042, 2881913, 161379687, 62412096, 386732960
5120, 32, 1725341, 1247069, 78353828, 4475709, 3743475, 143461805, 62516169, 337427324
5440, 32, 1833851, 1325499, 83281588, 5965687, 7191647, 245112670, 96107963, 642147755
5440, 32, 1833851, 1325499, 83281588, 5364633, 2568766, 154235645, 62889319, 403653359
5440, 32, 1833851, 1325499, 83281588, 4775875, 2434932, 155140637, 63515567, 393399331
5440, 32, 1833851, 1325499, 83281588, 4887934, 3903209, 155308784, 60551330, 397529648
5440, 32, 1833851, 1325499, 83281588, 4732953, 3774486, 160966683, 59736204, 384317599
5760, 32, 1942361, 1403929, 88209348, 6210091, 2685128, 166238493, 70454532, 572840416
5760, 32, 1942361, 1403929, 88209348, 8467836, 4049733, 162356188, 70195140, 445935743
5760, 32, 1942361, 1403929, 88209348, 5074535, 4113376, 164734105, 66016892, 388880269
5760, 32, 1942361, 1403929, 88209348, 5240466, 4137996, 165423065, 66909057, 428853591
5760, 32, 1942361, 1403929, 88209348, 5054355, 3832638, 181816342, 68306860, 406733326
6080, 32, 2050871, 1482359, 93137108, 6770743, 8561153, 182857417, 75374747, 587297940
6080, 32, 2050871, 1482359, 93137108, 6396788, 2813357, 172034374, 75889009, 402407743
6080, 32, 2050871, 1482359, 93137108, 5343346, 2858791, 169702524, 69014816, 477560728
6080, 32, 2050871, 1482359, 93137108, 5426925, 2916378, 171426066, 72125848, 484100990
6080, 32, 2050871, 1482359, 93137108, 5021723, 6374332, 172270304, 73967387, 425330950
6400, 32, 2159381, 1560789, 98064868, 6961992, 2966463, 198783872, 80094252, 652008447
6400, 32, 2159381, 1560789, 98064868, 6998950, 3779348, 193375997, 80580061, 430683452
6400, 32, 2159381, 1560789, 98064868, 5665213, 4873745, 178628309, 81398122, 445052757
6400, 32, 2159381, 1560789, 98064868, 5752731, 4503855, 180800982, 77084045, 460261720
6400, 32, 2159381, 1560789, 98064868, 5655363, 4489702, 176760347, 77922733, 417379829
