inputs, outputs, ngates, nxors, size, time_encrypt_in, time_decrypt_in, time_garble, time_eval, time_send
320, 32, 135590, 97958, 6157076, 947732, 163774, 34869465, 4544482, 79209426
320, 32, 135590, 97958, 6157076, 568666, 259210, 13226016, 5006961, 26836371
320, 32, 135590, 97958, 6157076, 599432, 236562, 25976392, 4534896, 44358087
320, 32, 135590, 97958, 6157076, 1116819, 260932, 62788722, 5407088, 103375034
320, 32, 135590, 97958, 6157076, 483415, 170542, 41508851, 4663141, 53883827
640, 32, 249760, 180448, 11342756, 841976, 314057, 40663974, 8248490, 104491542
640, 32, 249760, 180448, 11342756, 720724, 338074, 46051882, 8140157, 84162106
640, 32, 249760, 180448, 11342756, 640879, 495658, 44611741, 8208973, 82014815
640, 32, 249760, 180448, 11342756, 623636, 510892, 47642184, 8319562, 80598984
640, 32, 249760, 180448, 11342756, 702781, 440724, 54736835, 8274544, 86434775
960, 32, 363930, 262938, 16528436, 1319182, 459656, 41558766, 12948974, 131211602
960, 32, 363930, 262938, 16528436, 1353596, 481025, 44061586, 12470506, 106678591
960, 32, 363930, 262938, 16528436, 1289819, 476151, 70021791, 12566712, 115078777
960, 32, 363930, 262938, 16528436, 1300193, 845854, 32000366, 13002751, 65458323
960, 32, 363930, 262938, 16528436, 919601, 638421, 82748850, 12551432, 123475787
1280, 32, 478100, 345428, 21714116, 2001300, 648873, 53762003, 19775474, 168312427
1280, 32, 478100, 345428, 21714116, 1645115, 894286, 54427194, 15802471, 123058644
1280, 32, 478100, 345428, 21714116, 1287865, 764763, 115550910, 15630726, 186187269
1280, 32, 478100, 345428, 21714116, 2005778, 627046, 127866103, 17869397, 180545311
1280, 32, 478100, 345428, 21714116, 1170540, 801642, 46935492, 17978648, 90531297
1600, 32, 592270, 427918, 26899796, 2556235, 1402086, 67680731, 22821342, 188005652
1600, 32, 592270, 427918, 26899796, 1868553, 753483, 60870696, 19391117, 123904948
1600, 32, 592270, 427918, 26899796, 2327952, 759569, 130345273, 23706227, 234316845
1600, 32, 592270, 427918, 26899796, 1643989, 1272530, 123474374, 19535089, 208541679
1600, 32, 592270, 427918, 26899796, 1294512, 1296290, 114511258, 22296357, 157966064
1920, 32, 706440, 510408, 32085476, 2826189, 1925744, 140640889, 27459598, 317503414
1920, 32, 706440, 510408, 32085476, 2061163, 991026, 122856896, 23043895, 233360108
1920, 32, 706440, 510408, 32085476, 1660737, 1026246, 114693702, 23621130, 208098038
1920, 32, 706440, 510408, 32085476, 2377321, 1177663, 96762728, 26122412, 212213090
1920, 32, 706440, 510408, 32085476, 1704287, 1398107, 61246925, 25881517, 114510626
2240, 32, 820610, 592898, 37271156, 3628680, 1186466, 75609005, 31950866, 240117645
2240, 32, 820610, 592898, 37271156, 2955448, 1558210, 78567712, 32665678, 196041224
2240, 32, 820610, 592898, 37271156, 1849669, 1573265, 75786442, 33290005, 204124584
2240, 32, 820610, 592898, 37271156, 2897832, 1009001, 106875545, 26870698, 189289849
2240, 32, 820610, 592898, 37271156, 1973354, 1679874, 95049209, 32279703, 173929113
2560, 32, 934780, 675388, 42456836, 3408476, 5047388, 87759620, 43375710, 332873044
2560, 32, 934780, 675388, 42456836, 2539206, 1242608, 85991446, 42233691, 165401703
2560, 32, 934780, 675388, 42456836, 2227655, 1313130, 82426638, 33706709, 224613459
2560, 32, 934780, 675388, 42456836, 3799388, 1340734, 105851526, 34645028, 209431006
2560, 32, 934780, 675388, 42456836, 2312544, 2053779, 104281523, 37782718, 183695947
2880, 32, 1048950, 757878, 47642516, 3791511, 2231255, 97731304, 48134136, 367681042
2880, 32, 1048950, 757878, 47642516, 3175573, 1377244, 100039045, 35083141, 266145876
2880, 32, 1048950, 757878, 47642516, 2705505, 2030758, 97467405, 36278261, 234512920
2880, 32, 1048950, 757878, 47642516, 2631689, 2130540, 99486952, 35729761, 240861005
2880, 32, 1048950, 757878, 47642516, 2700116, 1384572, 95597523, 35744894, 260813648
3200, 32, 1163120, 840368, 52828196, 4191373, 1549157, 110125068, 42033275, 381350111
3200, 32, 1163120, 840368, 52828196, 5739141, 1523631, 107871031, 39473201, 294187189
3200, 32, 1163120, 840368, 52828196, 2944751, 1693537, 107362470, 50062415, 282129543
3200, 32, 1163120, 840368, 52828196, 4827607, 1515271, 108420881, 42151128, 280231817
3200, 32, 1163120, 840368, 52828196, 2927939, 1967923, 106008958, 43070749, 228676769
3520, 32, 1277290, 922858, 58013876, 5271168, 1770586, 122309274, 43186909, 430843963
3520, 32, 1277290, 922858, 58013876, 3892504, 1802415, 118744800, 44264720, 300456773
3520, 32, 1277290, 922858, 58013876, 3333795, 1791382, 117665836, 46566121, 251506623
3520, 32, 1277290, 922858, 58013876, 5110221, 3106603, 117233367, 49163072, 308799460
3520, 32, 1277290, 922858, 58013876, 3241853, 2685920, 118619881, 46407475, 261630745
3840, 32, 1391460, 1005348, 63199556, 5686620, 6132872, 132636298, 48782208, 450517765
3840, 32, 1391460, 1005348, 63199556, 4127605, 1900727, 130885577, 53020233, 331719442
3840, 32, 1391460, 1005348, 63199556, 3515136, 2218841, 128102525, 47214624, 339612078
3840, 32, 1391460, 1005348, 63199556, 3587634, 2871410, 131803592, 53712133, 332855156
3840, 32, 1391460, 1005348, 63199556, 3551485, 3137498, 125176039, 53913599, 293655968
4160, 32, 1505630, 1087838, 68385236, 4907519, 3801597, 141460738, 60958920, 454947264
4160, 32, 1505630, 1087838, 68385236, 5126691, 2000121, 136665243, 54754881, 365313343
4160, 32, 1505630, 1087838, 68385236, 3876814, 2046196, 137382915, 57732737, 364978618
4160, 32, 1505630, 1087838, 68385236, 3855658, 3013251, 133515226, 58754966, 344652541
4160, 32, 1505630, 1087838, 68385236, 3793648, 3028785, 140643401, 52462849, 325095264
4480, 32, 1619800, 1170328, 73570916, 4956921, 7160703, 151388543, 65072172, 521651167
4480, 32, 1619800, 1170328, 73570916, 4817669, 2065980, 146755013, 59435584, 346518239
4480, 32, 1619800, 1170328, 73570916, 6403714, 2816686, 272565653, 79959272, 641032383
4480, 32, 1619800, 1170328, 73570916, 4134499, 2267632, 160574794, 63005792, 424402113
4480, 32, 1619800, 1170328, 73570916, 4242980, 3372238, 146870443, 54989102, 339532395
4800, 32, 1733970, 1252818, 78756596, 5194299, 6991647, 161865257, 68500525, 523619682
4800, 32, 1733970, 1252818, 78756596, 5909890, 2878878, 156616089, 62918652, 384419048
4800, 32, 1733970, 1252818, 78756596, 4532803, 2389286, 156271656, 67471798, 439178041
4800, 32, 1733970, 1252818, 78756596, 5428298, 2386598, 169658630, 66581431, 392308659
4800, 32, 1733970, 1252818, 78756596, 4371319, 3397401, 154089018, 58736503, 351475146
5120, 32, 1848140, 1335308, 83942276, 6022675, 7814601, 177265707, 76348022, 604292385
5120, 32, 1848140, 1335308, 83942276, 5298729, 2708774, 168134899, 74007896, 396330661
5120, 32, 1848140, 1335308, 83942276, 4762118, 3861008, 169956689, 70914943, 433855178
5120, 32, 1848140, 1335308, 83942276, 4738911, 3839491, 163591000, 67419433, 426527496
5120, 32, 1848140, 1335308, 83942276, 5811296, 4584056, 178867432, 61884957, 402762016
5440, 32, 1962310, 1417798, 89127956, 7816109, 2580741, 203879782, 76474979, 640888882
5440, 32, 1962310, 1417798, 89127956, 5520127, 4372416, 178458851, 78347713, 486275324
5440, 32, 1962310, 1417798, 89127956, 4970379, 4716780, 177883334, 75411255, 452049442
5440, 32, 1962310, 1417798, 89127956, 5000540, 3983648, 179387652, 71959980, 447184046
5440, 32, 1962310, 1417798, 89127956, 5015155, 3735781, 176273387, 66639830, 413778585
5760, 32, 2076480, 1500288, 94313636, 8049607, 2756889, 192621689, 79522918, 656634375
5760, 32, 2076480, 1500288, 94313636, 6858152, 2744672, 188185768, 76468906, 496648112
5760, 32, 2076480, 1500288, 94313636, 5229004, 4392051, 189898104, 70527864, 469678987
5760, 32, 2076480, 1500288, 94313636, 5394698, 4245469, 191476407, 78475520, 485803284
5760, 32, 2076480, 1500288, 94313636, 5907966, 3940990, 186140288, 75808466, 440790079
6080, 32, 2190650, 1582778, 99499316, 8160210, 2929688, 204636227, 86358347, 699492467
6080, 32, 2190650, 1582778, 99499316, 6739382, 4511462, 195919870, 88071810, 459671465
6080, 32, 2190650, 1582778, 99499316, 5502623, 4485741, 194641978, 87158962, 492959885
6080, 32, 2190650, 1582778, 99499316, 5536168, 2948731, 196007378, 84279881, 554311541
6080, 32, 2190650, 1582778, 99499316, 5563340, 2871782, 198429001, 85914879, 462425408
6400, 32, 2304820, 1665268, 104684996, 8931745, 3178445, 211195741, 91674464, 721678326
6400, 32, 2304820, 1665268, 104684996, 6502840, 3104287, 201954667, 90243087, 538154087
6400, 32, 2304820, 1665268, 104684996, 7026146, 4060640, 205350913, 89085571, 517338671
6400, 32, 2304820, 1665268, 104684996, 7048906, 4891227, 211050831, 92359802, 534938012
6400, 32, 2304820, 1665268, 104684996, 9119526, 5779940, 225214398, 88838391, 511586546
