# 2017-05-12 00:53:02, n=10
320, 32, 15236, 11132, 4104, 0, 0, 696428, 3174490, 1677745, 10116575, 4128483, 47071668
320, 32, 15236, 11132, 4104, 0, 0, 696428, 6555573, 567800, 8434769, 1618731, 27451754
320, 32, 15236, 11132, 4104, 0, 0, 696428, 2281803, 703263, 8713420, 1851922, 31028072
320, 32, 15236, 11132, 4104, 0, 0, 696428, 435831, 244332, 2083445, 843245, 8015095
320, 32, 15236, 11132, 4104, 0, 0, 696428, 2072605, 535076, 8386361, 1989776, 24570041
# 2017-05-12 00:53:52, n=70
2240, 32, 24656, 18632, 6024, 0, 0, 1159628, 3520449, 1526455, 2775741, 1111784, 17911762
2240, 32, 24656, 18632, 6024, 0, 0, 1159628, 6270752, 5405413, 5567213, 3067855, 28481854
2240, 32, 24656, 18632, 6024, 0, 0, 1159628, 7940945, 1689825, 8515555, 1648700, 37470333
2240, 32, 24656, 18632, 6024, 0, 0, 1159628, 5445230, 2319745, 5295939, 2378958, 29068738
2240, 32, 24656, 18632, 6024, 0, 0, 1159628, 15507389, 5095534, 15302217, 2260215, 64009800
# 2017-05-12 00:54:42, n=130
4160, 32, 34076, 26132, 7944, 0, 0, 1622828, 32448137, 3460449, 27351519, 1702059, 102244306
4160, 32, 34076, 26132, 7944, 0, 0, 1622828, 5629558, 2979607, 4355517, 1474869, 27746603
4160, 32, 34076, 26132, 7944, 0, 0, 1622828, 9817330, 2897116, 22105648, 1450785, 54277857
4160, 32, 34076, 26132, 7944, 0, 0, 1622828, 7232702, 4104934, 25293494, 1782026, 57002440
4160, 32, 34076, 26132, 7944, 0, 0, 1622828, 9371667, 1916775, 22423040, 1407535, 52915282
# 2017-05-12 00:55:33, n=190
6080, 32, 43496, 33632, 9864, 0, 0, 2086028, 10652548, 4394041, 23776081, 2119247, 68133965
6080, 32, 43496, 33632, 9864, 0, 0, 2086028, 13849656, 4526879, 20354630, 1991209, 66093410
6080, 32, 43496, 33632, 9864, 0, 0, 2086028, 6617996, 6177572, 5238660, 2668592, 37432587
6080, 32, 43496, 33632, 9864, 0, 0, 2086028, 10525703, 10395792, 25982483, 2761829, 64296350
6080, 32, 43496, 33632, 9864, 0, 0, 2086028, 13059734, 2809913, 27442776, 1936275, 67916395
# 2017-05-12 00:56:19, n=250
8000, 32, 52916, 41132, 11784, 0, 0, 2549228, 13366653, 5809239, 29633121, 2462361, 82954894
8000, 32, 52916, 41132, 11784, 0, 0, 2549228, 11676534, 5565930, 20963083, 2326198, 63260776
8000, 32, 52916, 41132, 11784, 0, 0, 2549228, 9693321, 4032031, 14226352, 2478865, 54569422
8000, 32, 52916, 41132, 11784, 0, 0, 2549228, 9354074, 3656262, 17890249, 2541453, 60487269
8000, 32, 52916, 41132, 11784, 0, 0, 2549228, 14207686, 3567574, 8663690, 2362643, 53315581
# 2017-05-12 00:57:13, n=310
9920, 32, 62336, 48632, 13704, 0, 0, 3012428, 17815571, 19055886, 24025981, 4313601, 85493727
9920, 32, 62336, 48632, 13704, 0, 0, 3012428, 13950663, 4961973, 24948361, 2842349, 76896983
9920, 32, 62336, 48632, 13704, 0, 0, 3012428, 12900973, 7035153, 28066243, 3091712, 79571722
9920, 32, 62336, 48632, 13704, 0, 0, 3012428, 16928294, 7036267, 31866967, 2871712, 88383300
9920, 32, 62336, 48632, 13704, 0, 0, 3012428, 14308432, 7860700, 26584187, 3964593, 79670696
# 2017-05-12 00:58:06, n=370
11840, 32, 71756, 56132, 15624, 0, 0, 3475628, 15442193, 7930498, 32217969, 3257820, 93197735
11840, 32, 71756, 56132, 15624, 0, 0, 3475628, 15243797, 8621938, 30438606, 4618435, 89602053
11840, 32, 71756, 56132, 15624, 0, 0, 3475628, 13155457, 8537422, 25477225, 3382765, 82156363
11840, 32, 71756, 56132, 15624, 0, 0, 3475628, 14001864, 8381711, 32757916, 4304671, 87373394
11840, 32, 71756, 56132, 15624, 0, 0, 3475628, 13600297, 15328389, 9850025, 10102176, 60649303
# 2017-05-12 00:59:00, n=430
13760, 32, 81176, 63632, 17544, 0, 0, 3938828, 17834563, 9747152, 25945884, 5041678, 101837615
13760, 32, 81176, 63632, 17544, 0, 0, 3938828, 16041207, 9763264, 29731957, 5624788, 97342052
13760, 32, 81176, 63632, 17544, 0, 0, 3938828, 15852733, 10059073, 29860519, 3870457, 94593523
13760, 32, 81176, 63632, 17544, 0, 0, 3938828, 13671220, 16913650, 10097458, 12005238, 66086873
13760, 32, 81176, 63632, 17544, 0, 0, 3938828, 15136542, 6390275, 34509565, 3711522, 94810897
# 2017-05-12 00:59:57, n=490
15680, 32, 90596, 71132, 19464, 0, 0, 4402028, 19423976, 11194463, 33536458, 4427519, 116923087
15680, 32, 90596, 71132, 19464, 0, 0, 4402028, 19501729, 11607972, 31023148, 4348559, 106168470
15680, 32, 90596, 71132, 19464, 0, 0, 4402028, 17552211, 7236075, 18475466, 4678745, 94389946
15680, 32, 90596, 71132, 19464, 0, 0, 4402028, 21113418, 7034325, 47556455, 4518165, 120519051
15680, 32, 90596, 71132, 19464, 0, 0, 4402028, 17857953, 10575089, 30294035, 4389484, 98531725
# 2017-05-12 01:00:57, n=550
17600, 32, 100016, 78632, 21384, 0, 0, 4865228, 21064901, 12418017, 25241193, 4928682, 119972411
17600, 32, 100016, 78632, 21384, 0, 0, 4865228, 17401545, 7877433, 12380561, 4971603, 104094561
17600, 32, 100016, 78632, 21384, 0, 0, 4865228, 18872827, 7848648, 13974902, 4910321, 86439405
17600, 32, 100016, 78632, 21384, 0, 0, 4865228, 17935653, 12778486, 23183768, 4629788, 103919290
17600, 32, 100016, 78632, 21384, 0, 0, 4865228, 19583470, 14164527, 30364585, 4644692, 110171946
# 2017-05-12 01:02:00, n=610
19520, 32, 109436, 86132, 23304, 0, 0, 5328428, 21365752, 13607274, 32196046, 5291183, 127907194
19520, 32, 109436, 86132, 23304, 0, 0, 5328428, 22536872, 13850525, 19785725, 5342505, 106787519
19520, 32, 109436, 86132, 23304, 0, 0, 5328428, 28649206, 13724341, 29362821, 5476987, 127454207
19520, 32, 109436, 86132, 23304, 0, 0, 5328428, 20628355, 8848667, 34642974, 5044575, 115934783
19520, 32, 109436, 86132, 23304, 0, 0, 5328428, 18664214, 8897895, 27404596, 5210674, 116420200
# 2017-05-12 01:03:02, n=670
21440, 32, 118856, 93632, 25224, 0, 0, 5791628, 23832314, 36269515, 33159777, 9587983, 133672266
21440, 32, 118856, 93632, 25224, 0, 0, 5791628, 30086142, 10160819, 34206923, 7191613, 142290631
21440, 32, 118856, 93632, 25224, 0, 0, 5791628, 21114707, 15072372, 22843542, 5880831, 119042014
21440, 32, 118856, 93632, 25224, 0, 0, 5791628, 23027260, 15067256, 29468457, 5683780, 126364423
21440, 32, 118856, 93632, 25224, 0, 0, 5791628, 21284809, 15170814, 30034048, 5833939, 126002827
# 2017-05-12 01:04:09, n=730
23360, 32, 128276, 101132, 27144, 0, 0, 6254828, 29750387, 11551762, 37652558, 6522922, 156503067
23360, 32, 128276, 101132, 27144, 0, 0, 6254828, 24426108, 17786796, 34592649, 6095799, 142990968
23360, 32, 128276, 101132, 27144, 0, 0, 6254828, 23163380, 16760102, 39924141, 5939667, 144457739
23360, 32, 128276, 101132, 27144, 0, 0, 6254828, 23152151, 16477763, 36222699, 6337597, 142669988
23360, 32, 128276, 101132, 27144, 0, 0, 6254828, 23769157, 43980752, 16273237, 6126241, 111760773
# 2017-05-12 01:05:20, n=790
25280, 32, 137696, 108632, 29064, 0, 0, 6718028, 37913434, 19874932, 50460663, 9573357, 210681702
25280, 32, 137696, 108632, 29064, 0, 0, 6718028, 29246577, 19429726, 26094743, 6572331, 138567940
25280, 32, 137696, 108632, 29064, 0, 0, 6718028, 26157384, 20307321, 33394122, 7571045, 142755081
25280, 32, 137696, 108632, 29064, 0, 0, 6718028, 26575004, 18192077, 36867420, 6473632, 151509319
25280, 32, 137696, 108632, 29064, 0, 0, 6718028, 26271302, 12772967, 30367029, 6985437, 140612130
# 2017-05-12 01:06:31, n=850
27200, 32, 147116, 116132, 30984, 0, 0, 7181228, 31811659, 21063581, 30555102, 7568511, 174440483
27200, 32, 147116, 116132, 30984, 0, 0, 7181228, 27844680, 20764496, 41443917, 8639251, 166957754
27200, 32, 147116, 116132, 30984, 0, 0, 7181228, 28869429, 19348347, 28629821, 7234404, 156100026
27200, 32, 147116, 116132, 30984, 0, 0, 7181228, 26926373, 14369092, 29127504, 7135582, 147859866
27200, 32, 147116, 116132, 30984, 0, 0, 7181228, 27075696, 12621382, 49299689, 6828247, 165002166
# 2017-05-12 01:07:43, n=910
29120, 32, 156536, 123632, 32904, 0, 0, 7644428, 33132762, 22669993, 22575183, 7475863, 155609839
29120, 32, 156536, 123632, 32904, 0, 0, 7644428, 29125970, 22154021, 36373919, 8058105, 164743238
29120, 32, 156536, 123632, 32904, 0, 0, 7644428, 30852869, 15092644, 29502462, 8147675, 164877581
29120, 32, 156536, 123632, 32904, 0, 0, 7644428, 30261732, 15374776, 60704328, 9031033, 193316126
29120, 32, 156536, 123632, 32904, 0, 0, 7644428, 30157133, 13981117, 33156590, 7281120, 167802576
# 2017-05-12 01:08:56, n=970
31040, 32, 165956, 131132, 34824, 0, 0, 8107628, 37597385, 21853509, 47166325, 8854416, 209055350
31040, 32, 165956, 131132, 34824, 0, 0, 8107628, 32465424, 22329975, 72530447, 8024570, 218716174
31040, 32, 165956, 131132, 34824, 0, 0, 8107628, 29943669, 16015397, 45315898, 8008937, 184100145
31040, 32, 165956, 131132, 34824, 0, 0, 8107628, 30684518, 14586219, 32658937, 7783271, 161397301
31040, 32, 165956, 131132, 34824, 0, 0, 8107628, 30505097, 16104314, 39280236, 7792479, 171635756
