inputs, outputs, ngates, nxors, nands, nors, nnots, size, time_encrypt_in, time_decrypt_in, time_garble, time_eval, time_send
320, 32, 7664, 32, 5616, 855, 1161, 623468, 4287925, 917229, 11352170, 2271881, 39691503
320, 32, 7664, 32, 5616, 855, 1161, 623468, 2540671, 1591432, 10491815, 5097537, 34228385
320, 32, 7664, 32, 5616, 855, 1161, 623468, 1786599, 814898, 10749147, 1758855, 30026457
320, 32, 7664, 32, 5616, 855, 1161, 623468, 2601644, 756387, 12622773, 1682835, 28891801
320, 32, 7664, 32, 5616, 855, 1161, 623468, 5081562, 1015243, 10484498, 2167911, 31057083
2240, 32, 58544, 32, 43056, 6555, 8901, 4763468, 3602091, 1638220, 36232839, 5022906, 68634272
2240, 32, 58544, 32, 43056, 6555, 8901, 4763468, 2942489, 2732728, 42148598, 6925547, 64794347
2240, 32, 58544, 32, 43056, 6555, 8901, 4763468, 2596087, 1096275, 43564053, 5734073, 66109403
2240, 32, 58544, 32, 43056, 6555, 8901, 4763468, 2652042, 1030689, 44276682, 4593689, 65744970
2240, 32, 58544, 32, 43056, 6555, 8901, 4763468, 2915014, 1563756, 29436446, 4857481, 47178801
4160, 32, 109424, 32, 80496, 12255, 16641, 8903468, 5907017, 2937377, 55403372, 8631004, 106616804
4160, 32, 109424, 32, 80496, 12255, 16641, 8903468, 4553250, 2056267, 36242838, 8896964, 71095003
4160, 32, 109424, 32, 80496, 12255, 16641, 8903468, 3786381, 1909780, 49504389, 8613312, 86599397
4160, 32, 109424, 32, 80496, 12255, 16641, 8903468, 3734261, 2950355, 47195210, 8703059, 80375959
4160, 32, 109424, 32, 80496, 12255, 16641, 8903468, 3831007, 3116570, 50869412, 8579886, 82669544
6080, 32, 160304, 32, 117936, 17955, 24381, 13043468, 6560215, 2947601, 93460490, 12704615, 161635531
6080, 32, 160304, 32, 117936, 17955, 24381, 13043468, 7880286, 4333547, 54555167, 13368132, 108924680
6080, 32, 160304, 32, 117936, 17955, 24381, 13043468, 5517848, 2805717, 54003557, 12785891, 108666265
6080, 32, 160304, 32, 117936, 17955, 24381, 13043468, 5614487, 2916170, 58588072, 12831022, 103520643
6080, 32, 160304, 32, 117936, 17955, 24381, 13043468, 5499443, 6259064, 61644030, 16340612, 111515601
8000, 32, 211184, 32, 155376, 23655, 32121, 17183468, 9271985, 3625798, 47579582, 16872987, 125691615
8000, 32, 211184, 32, 155376, 23655, 32121, 17183468, 7901898, 4127941, 57266362, 19877578, 132353839
8000, 32, 211184, 32, 155376, 23655, 32121, 17183468, 7126529, 3711369, 73989113, 18474519, 131869591
8000, 32, 211184, 32, 155376, 23655, 32121, 17183468, 7384183, 6088579, 68507400, 17404093, 130338781
8000, 32, 211184, 32, 155376, 23655, 32121, 17183468, 7123044, 6156437, 61393103, 16784462, 126715253
9920, 32, 262064, 32, 192816, 29355, 39861, 21323468, 16097547, 8310258, 66040535, 25408631, 184260438
9920, 32, 262064, 32, 192816, 29355, 39861, 21323468, 12029528, 4753724, 72103182, 20603539, 155095344
9920, 32, 262064, 32, 192816, 29355, 39861, 21323468, 9646978, 6551438, 74871416, 28038965, 156453891
9920, 32, 262064, 32, 192816, 29355, 39861, 21323468, 8848756, 8831226, 62069083, 20786300, 132160466
9920, 32, 262064, 32, 192816, 29355, 39861, 21323468, 8780368, 4617251, 56471731, 20690916, 117437333
11840, 32, 312944, 32, 230256, 35055, 47601, 25463468, 23713287, 20704909, 88689258, 38919978, 239786045
11840, 32, 312944, 32, 230256, 35055, 47601, 25463468, 10849449, 6322746, 87093753, 29566074, 180220211
11840, 32, 312944, 32, 230256, 35055, 47601, 25463468, 11683540, 6234612, 75914695, 27410457, 160544945
11840, 32, 312944, 32, 230256, 35055, 47601, 25463468, 12042493, 5575000, 80406996, 28592162, 176100095
11840, 32, 312944, 32, 230256, 35055, 47601, 25463468, 10691072, 5505907, 88686238, 27344373, 174984327
13760, 32, 363824, 32, 267696, 40755, 55341, 29603468, 17673605, 7644603, 86164232, 35959636, 290207593
13760, 32, 363824, 32, 267696, 40755, 55341, 29603468, 12948070, 6371514, 82066009, 29312139, 164728815
13760, 32, 363824, 32, 267696, 40755, 55341, 29603468, 14011757, 9544523, 86106627, 31544765, 209892023
13760, 32, 363824, 32, 267696, 40755, 55341, 29603468, 13144945, 8249249, 90141624, 33853203, 185596710
13760, 32, 363824, 32, 267696, 40755, 55341, 29603468, 12744598, 6903190, 118133756, 36831003, 209982193
15680, 32, 414704, 32, 305136, 46455, 63081, 33743468, 19254808, 8245607, 97728816, 37734000, 275039290
15680, 32, 414704, 32, 305136, 46455, 63081, 33743468, 18147813, 7907572, 108764670, 37924984, 221438005
15680, 32, 414704, 32, 305136, 46455, 63081, 33743468, 15190029, 9243908, 98486034, 38308018, 219290348
15680, 32, 414704, 32, 305136, 46455, 63081, 33743468, 19140417, 11748384, 180480085, 41580532, 316563983
15680, 32, 414704, 32, 305136, 46455, 63081, 33743468, 19305674, 7267274, 106129617, 34635647, 238144130
17600, 32, 465584, 32, 342576, 52155, 70821, 37883468, 36274540, 13764819, 134294666, 47080265, 339651703
17600, 32, 465584, 32, 342576, 52155, 70821, 37883468, 23814005, 12571777, 120458750, 44120456, 251536041
17600, 32, 465584, 32, 342576, 52155, 70821, 37883468, 20968654, 17145523, 141092275, 49132042, 301038125
17600, 32, 465584, 32, 342576, 52155, 70821, 37883468, 17121004, 9040511, 118067726, 43661322, 236651198
17600, 32, 465584, 32, 342576, 52155, 70821, 37883468, 17427458, 8406909, 118776840, 41151707, 251191197
19520, 32, 516464, 32, 380016, 57855, 78561, 42023468, 22781825, 17830339, 115604825, 46069557, 366726121
19520, 32, 516464, 32, 380016, 57855, 78561, 42023468, 23131447, 13894638, 142641360, 55574822, 336438675
19520, 32, 516464, 32, 380016, 57855, 78561, 42023468, 25063027, 14769099, 153492956, 50406525, 329366702
19520, 32, 516464, 32, 380016, 57855, 78561, 42023468, 17473511, 9118663, 117920412, 44239570, 262474746
19520, 32, 516464, 32, 380016, 57855, 78561, 42023468, 19625699, 9909337, 185633376, 46573257, 364219128
21440, 32, 567344, 32, 417456, 63555, 86301, 46163468, 37737494, 12767750, 162136337, 59208339, 457214597
21440, 32, 567344, 32, 417456, 63555, 86301, 46163468, 28431502, 23668877, 158915214, 67754996, 339674014
21440, 32, 567344, 32, 417456, 63555, 86301, 46163468, 19261967, 11674022, 184325647, 54768807, 394164802
21440, 32, 567344, 32, 417456, 63555, 86301, 46163468, 31434100, 17424982, 208736776, 74223425, 446432529
21440, 32, 567344, 32, 417456, 63555, 86301, 46163468, 31172593, 13820252, 186766676, 66213104, 420669097
23360, 32, 618224, 32, 454896, 69255, 94041, 50303468, 52100614, 16603764, 214526983, 81451799, 558431117
23360, 32, 618224, 32, 454896, 69255, 94041, 50303468, 35303978, 15138269, 223545005, 66789718, 464769074
23360, 32, 618224, 32, 454896, 69255, 94041, 50303468, 24347134, 47355130, 147442782, 54900168, 356847318
23360, 32, 618224, 32, 454896, 69255, 94041, 50303468, 30245626, 16037744, 206344226, 69689877, 414488010
23360, 32, 618224, 32, 454896, 69255, 94041, 50303468, 37361860, 19090882, 232325327, 72659551, 471775902
25280, 32, 669104, 32, 492336, 74955, 101781, 54443468, 58727430, 19245392, 242482933, 82898664, 604743534
25280, 32, 669104, 32, 492336, 74955, 101781, 54443468, 39860995, 17971006, 249355366, 84211233, 510801454
25280, 32, 669104, 32, 492336, 74955, 101781, 54443468, 38904388, 30252640, 218489768, 86305280, 506359679
25280, 32, 669104, 32, 492336, 74955, 101781, 54443468, 39948200, 19291691, 240028564, 87515435, 553705725
25280, 32, 669104, 32, 492336, 74955, 101781, 54443468, 36567964, 18856945, 241755241, 78105531, 527396793
27200, 32, 719984, 32, 529776, 80655, 109521, 58583468, 69929443, 22672255, 235371849, 88683796, 678561263
27200, 32, 719984, 32, 529776, 80655, 109521, 58583468, 42802395, 21222381, 264348412, 90474276, 537424371
27200, 32, 719984, 32, 529776, 80655, 109521, 58583468, 60861161, 30471080, 256296764, 91523021, 626564425
27200, 32, 719984, 32, 529776, 80655, 109521, 58583468, 40195952, 21631327, 296641567, 96230094, 622417307
27200, 32, 719984, 32, 529776, 80655, 109521, 58583468, 41263347, 20964502, 319763912, 97044285, 637248154
29120, 32, 770864, 32, 567216, 86355, 117261, 62723468, 76023157, 22321445, 297170416, 97954483, 777354605
29120, 32, 770864, 32, 567216, 86355, 117261, 62723468, 41099548, 26215223, 264726151, 100680232, 593978177
29120, 32, 770864, 32, 567216, 86355, 117261, 62723468, 52064532, 33400252, 318259149, 104425026, 713413509
29120, 32, 770864, 32, 567216, 86355, 117261, 62723468, 43319097, 21059333, 339202127, 103302403, 703800686
29120, 32, 770864, 32, 567216, 86355, 117261, 62723468, 40554259, 18709033, 302225755, 80521236, 605706204
31040, 32, 821744, 32, 604656, 92055, 125001, 66863468, 86455069, 24708666, 301169034, 100719611, 780024979
31040, 32, 821744, 32, 604656, 92055, 125001, 66863468, 51484495, 26906980, 301990594, 115510922, 713785337
31040, 32, 821744, 32, 604656, 92055, 125001, 66863468, 40262423, 24395518, 301208430, 103630896, 708618830
31040, 32, 821744, 32, 604656, 92055, 125001, 66863468, 43838224, 26668399, 351043895, 120903701, 734802758
31040, 32, 821744, 32, 604656, 92055, 125001, 66863468, 46394467, 22159083, 373948179, 103532071, 715825446
