# 2017-05-12 00:14:07, n=10
# 2017-05-12 00:34:41, n=10
320, 32, 124151, 89807, 34344, 0, 0, 5633228, 769107, 224584, 32103740, 4133127, 65774512
320, 32, 124151, 89807, 34344, 0, 0, 5633228, 489404, 160653, 32607503, 4729654, 60707424
320, 32, 124151, 89807, 34344, 0, 0, 5633228, 629120, 449471, 33090997, 4224299, 55527508
320, 32, 124151, 89807, 34344, 0, 0, 5633228, 471384, 320607, 38318705, 6155305, 49990860
320, 32, 124151, 89807, 34344, 0, 0, 5633228, 316588, 214743, 12513685, 4373154, 26773578
# 2017-05-12 00:35:28, n=70
2240, 32, 951611, 688307, 263304, 0, 0, 43171628, 3101767, 1072505, 103685324, 31100882, 314109990
2240, 32, 951611, 688307, 263304, 0, 0, 43171628, 3943946, 1433241, 91346502, 34279334, 218527120
2240, 32, 951611, 688307, 263304, 0, 0, 43171628, 2019543, 1870686, 84509528, 34916094, 180664818
2240, 32, 951611, 688307, 263304, 0, 0, 43171628, 3008249, 1061755, 108946225, 41695811, 239489592
2240, 32, 951611, 688307, 263304, 0, 0, 43171628, 1927992, 993655, 85308516, 31252179, 178533881
# 2017-05-12 00:36:16, n=130
4160, 32, 1779071, 1286807, 492264, 0, 0, 80710028, 5408258, 1958615, 166154177, 66703280, 532363130
4160, 32, 1779071, 1286807, 492264, 0, 0, 80710028, 4644235, 1919450, 151988819, 71745380, 402457841
4160, 32, 1779071, 1286807, 492264, 0, 0, 80710028, 3639376, 3017348, 151121292, 62580160, 354937926
4160, 32, 1779071, 1286807, 492264, 0, 0, 80710028, 3747881, 2973402, 149905663, 59708526, 385301163
4160, 32, 1779071, 1286807, 492264, 0, 0, 80710028, 3682758, 1920510, 158502463, 63401468, 418136335
# 2017-05-12 00:37:13, n=190
6080, 32, 2606531, 1885307, 721224, 0, 0, 118248428, 6364888, 2934357, 221543035, 118435817, 792415208
6080, 32, 2606531, 1885307, 721224, 0, 0, 118248428, 5862523, 4096733, 224471434, 116237210, 597038872
6080, 32, 2606531, 1885307, 721224, 0, 0, 118248428, 5382627, 3471254, 213184791, 112918153, 534956220
6080, 32, 2606531, 1885307, 721224, 0, 0, 118248428, 5407955, 4352959, 227093871, 100195801, 570587827
6080, 32, 2606531, 1885307, 721224, 0, 0, 118248428, 5404873, 4297069, 218332561, 101202974, 550462134
# 2017-05-12 00:38:09, n=250
8000, 32, 3433991, 2483807, 950184, 0, 0, 155786828, 10146180, 6270937, 299563181, 121842080, 984696754
8000, 32, 3433991, 2483807, 950184, 0, 0, 155786828, 7204012, 3661117, 279274151, 121391315, 607133467
8000, 32, 3433991, 2483807, 950184, 0, 0, 155786828, 7149775, 5655279, 296810500, 123714513, 707998328
8000, 32, 3433991, 2483807, 950184, 0, 0, 155786828, 8174351, 5810180, 289222097, 121231497, 741421727
8000, 32, 3433991, 2483807, 950184, 0, 0, 155786828, 7019012, 6120969, 289243940, 125679129, 686715291
# 2017-05-12 00:39:03, n=310
9920, 32, 4261451, 3082307, 1179144, 0, 0, 193325228, 12477880, 7513130, 367808904, 186671504, 1208578159
9920, 32, 4261451, 3082307, 1179144, 0, 0, 193325228, 8930378, 4598112, 348479582, 161513531, 883991975
9920, 32, 4261451, 3082307, 1179144, 0, 0, 193325228, 8750716, 7077238, 348354645, 179398764, 1130082284
9920, 32, 4261451, 3082307, 1179144, 0, 0, 193325228, 8919491, 8609238, 370471827, 187771711, 1065259302
9920, 32, 4261451, 3082307, 1179144, 0, 0, 193325228, 9593521, 10114492, 357844286, 177108363, 975302695
# 2017-05-12 00:39:59, n=370
11840, 32, 5088911, 3680807, 1408104, 0, 0, 230863628, 13376283, 5393884, 441036787, 200711589, 1415918706
11840, 32, 5088911, 3680807, 1408104, 0, 0, 230863628, 10772852, 5496425, 421661411, 169141702, 1045415372
11840, 32, 5088911, 3680807, 1408104, 0, 0, 230863628, 10509390, 8481098, 415092705, 191388406, 999355821
11840, 32, 5088911, 3680807, 1408104, 0, 0, 230863628, 10608392, 12125568, 414437307, 276264171, 2374566032
11840, 32, 5088911, 3680807, 1408104, 0, 0, 230863628, 10748136, 5519493, 443369394, 184211616, 983141153
# 2017-05-12 00:40:59, n=430
13760, 32, 5916371, 4279307, 1637064, 0, 0, 268402028, 17809845, 6253747, 506624667, 209930577, 1652790305
13760, 32, 5916371, 4279307, 1637064, 0, 0, 268402028, 13870987, 9790767, 486057628, 207151171, 1073260874
13760, 32, 5916371, 4279307, 1637064, 0, 0, 268402028, 13870854, 6660654, 491981898, 216420143, 1320242012
13760, 32, 5916371, 4279307, 1637064, 0, 0, 268402028, 12373472, 7898338, 486298407, 286652565, 1900066358
#13760, 32, 5916371, 4279307, 1637064, 0, 0, 268402028, 18095146, 16305656, 548522172, 337238069, 4623919362
# 2017-05-12 00:42:04, n=490
15680, 32, 6743831, 4877807, 1866024, 0, 0, 305940428, 19410764, 7104818, 582824074, 223420229, 1907275733
15680, 32, 6743831, 4877807, 1866024, 0, 0, 305940428, 14007563, 7730674, 566363456, 240786860, 1384107932
15680, 32, 6743831, 4877807, 1866024, 0, 0, 305940428, 13815207, 11469514, 548042279, 231843713, 1487649196
15680, 32, 6743831, 4877807, 1866024, 0, 0, 305940428, 14062337, 16981265, 557729018, 320842350, 1695764811
#15680, 32, 6743831, 4877807, 1866024, 0, 0, 305940428, 16066420, 11391072, 624594770, 317633994, 7032761161
# 2017-05-12 00:43:03, n=550
17600, 32, 7571291, 5476307, 2094984, 0, 0, 343478828, 23515102, 8041511, 647524206, 253652967, 2099095606
17600, 32, 7571291, 5476307, 2094984, 0, 0, 343478828, 17530555, 13895775, 628562895, 260488863, 1381901489
17600, 32, 7571291, 5476307, 2094984, 0, 0, 343478828, 17457735, 12147718, 630168341, 258767847, 1513729891
17600, 32, 7571291, 5476307, 2094984, 0, 0, 343478828, 15716716, 8030210, 629119898, 247107660, 1649350635
17600, 32, 7571291, 5476307, 2094984, 0, 0, 343478828, 15645172, 7904724, 607949364, 254127424, 1342058674
# 2017-05-12 00:44:10, n=610
19520, 32, 8398751, 6074807, 2323944, 0, 0, 381017228, 22757467, 8862359, 718723611, 276835757,  2258859744
19520, 32, 8398751, 6074807, 2323944, 0, 0, 381017228, 17818361, 14034070, 693061888, 286137457, 1496670360
19520, 32, 8398751, 6074807, 2323944, 0, 0, 381017228, 17248423, 13647494, 687840402, 285935108, 1657835329
19520, 32, 8398751, 6074807, 2323944, 0, 0, 381017228, 18128977, 13623022, 709954533, 307683097, 1677977981
19520, 32, 8398751, 6074807, 2323944, 0, 0, 381017228, 22465250, 14517556, 937003621, 367016656, 1984662434
# 2017-05-12 00:45:18, n=670
21440, 32, 9226211, 6673307, 2552904, 0, 0, 418555628, 26109529, 9713212, 779002220, 311206099, 2489878202
21440, 32, 9226211, 6673307, 2552904, 0, 0, 418555628, 19086322, 15286504, 756553536, 308131981, 1692785384
21440, 32, 9226211, 6673307, 2552904, 0, 0, 418555628, 21168510, 14955662, 734426013, 315244948, 1775525451
21440, 32, 9226211, 6673307, 2552904, 0, 0, 418555628, 19577901, 15063393, 726561790, 302236449, 1784360110
21440, 32, 9226211, 6673307, 2552904, 0, 0, 418555628, 26694195, 24279885, 986293849, 459121717, 2153712674
# 2017-05-12 00:46:32, n=730
23360, 32, 10053671, 7271807, 2781864, 0, 0, 456094028, 26290971, 10528367, 877177071, 332651092, 2727945318
23360, 32, 10053671, 7271807, 2781864, 0, 0, 456094028, 20951319, 10208753, 841676327, 344016281, 2046567678
23360, 32, 10053671, 7271807, 2781864, 0, 0, 456094028, 22241047, 17107493, 792265703, 343600997, 1932035268
23360, 32, 10053671, 7271807, 2781864, 0, 0, 456094028, 24479797, 22062641, 1043619520, 467149700, 2581943148
23360, 32, 10053671, 7271807, 2781864, 0, 0, 456094028, 21361975, 22840175, 876524263, 476567911, 2777499237
# 2017-05-12 00:47:56, n=790
25280, 32, 10881131, 7870307, 3010824, 0, 0, 493632428, 30001673, 11536903, 899855307, 359064367, 2885097390
25280, 32, 10881131, 7870307, 3010824, 0, 0, 493632428, 23017745, 17713559, 886238332, 372341740, 1923195464
25280, 32, 10881131, 7870307, 3010824, 0, 0, 493632428, 24719977, 14208175, 949126581, 500368462, 2440411257
25280, 32, 10881131, 7870307, 3010824, 0, 0, 493632428, 24407804, 12045182, 891021452, 489198851, 2231429311
#25280, 32, 10881131, 7870307, 3010824, 0, 0, 493632428, 22395768, 13149883, 893072442, 922855391, 13158189187
# 2017-05-12 00:49:15, n=850
27200, 32, 11708591, 8468807, 3239784, 0, 0, 531170828, 44644219, 16526719, 1121005546, 513397954, 3618706009
27200, 32, 11708591, 8468807, 3239784, 0, 0, 531170828, 30295737, 20880954, 1092355837, 536726720, 2406586351
27200, 32, 11708591, 8468807, 3239784, 0, 0, 531170828, 24135448, 13474655, 979561363, 513544745, 2694190114
27200, 32, 11708591, 8468807, 3239784, 0, 0, 531170828, 24389060, 18340384, 948558525, 524364873, 2402669198
27200, 32, 11708591, 8468807, 3239784, 0, 0, 531170828, 24344750, 21246448, 976307044, 403245683, 2255307079
# 2017-05-12 00:50:58, n=910
29120, 32, 12536051, 9067307, 3468744, 0, 0, 568709228, 39758567, 17976878, 1049530501, 575131780, 3747574143
29120, 32, 12536051, 9067307, 3468744, 0, 0, 568709228, 26655285, 16546170, 1069923167, 520371370, 2791637100
29120, 32, 12536051, 9067307, 3468744, 0, 0, 568709228, 27711056, 22627627, 1074758036, 554242557, 2607790420
29120, 32, 12536051, 9067307, 3468744, 0, 0, 568709228, 27675484, 21759234, 1020588467, 474669845, 2638242355
#29120, 32, 12536051, 9067307, 3468744, 0, 0, 568709228, 27652115, 42069607, 1051253831, 1580893036, 27213875817
# 2017-05-12 00:52:17, n=970
31040, 32, 13363511, 9665807, 3697704, 0, 0, 606247628, 34092296, 22508766, 1116333426, 589841129, 3773817001
31040, 32, 13363511, 9665807, 3697704, 0, 0, 606247628, 27806753, 19032639, 1132983494, 583341463, 2769122445
31040, 32, 13363511, 9665807, 3697704, 0, 0, 606247628, 29568220, 22599518, 1127733660, 457953707, 2610049526
31040, 32, 13363511, 9665807, 3697704, 0, 0, 606247628, 27600741, 22009856, 1092887518, 440074825, 2921792982
31040, 32, 13363511, 9665807, 3697704, 0, 0, 606247628, 27438522, 20696882, 1090792314, 438110404, 2579948163
