inputs, outputs, ngates, nxors, nands, nors, nnots, size, time_encrypt_in, time_decrypt_in, time_garble, time_eval, time_send
288, 32, 794756, 348417, 411453, 12160, 22726, 46867188, 262077, 142817, 123029639, 41438308, 299116814
288, 32, 794756, 348417, 411453, 12160, 22726, 46867188, 319556, 459875, 112303492, 41178502, 199518202
288, 32, 794756, 348417, 411453, 12160, 22726, 46867188, 286879, 141358, 107655338, 43482099, 216442462
288, 32, 794756, 348417, 411453, 12160, 22726, 46867188, 299745, 203593, 120813834, 44592246, 212250235
288, 32, 794756, 348417, 411453, 12160, 22726, 46867188, 284359, 134872, 115277806, 44324599, 202979765
