inputs, outputs, ngates, nxors, nands, nors, nnots, size, time_encrypt_in, time_decrypt_in, time_garble, time_eval, time_send
288, 32, 412139, 323179, 87664, 504, 792, 17469252, 291056, 209317, 37713631, 12112025, 90579895
288, 32, 412139, 323179, 87664, 504, 792, 17469252, 326677, 162154, 34212174, 11828606, 81528137
288, 32, 412139, 323179, 87664, 504, 792, 17469252, 283579, 148885, 33387370, 11714848, 83439439
288, 32, 412139, 323179, 87664, 504, 792, 17469252, 329873, 151354, 49109468, 11715021, 99857560
288, 32, 412139, 323179, 87664, 504, 792, 17469252, 334006, 173058, 32068720, 11761793, 69814579
