inputs, outputs, ngates, nxors, nands, nors, nnots, size, time_encrypt_in, time_decrypt_in, time_garble, time_eval, time_send
288, 32, 412139, 323179, 87664, 504, 792, 17469252, 279863, 149087, 31573814, 11728773, 88636681
288, 32, 412139, 323179, 87664, 504, 792, 17469252, 339983, 365595, 54202963, 11931318, 92438949
288, 32, 412139, 323179, 87664, 504, 792, 17469252, 307842, 175586, 32947318, 11696727, 77843808
288, 32, 412139, 323179, 87664, 504, 792, 17469252, 404538, 143117, 34825302, 12764855, 81683485
288, 32, 412139, 323179, 87664, 504, 792, 17469252, 285566, 147069, 31449321, 12323270, 87327513
