inputs, outputs, ngates, nxors, nands, nors, nnots, size, time_encrypt_in, time_decrypt_in, time_garble, time_eval, time_send
320, 32, 124151, 89807, 34344, 0, 0, 5622788, 46810, 30688, 33181129, 4291515, 57066984
320, 32, 124151, 89807, 34344, 0, 0, 5622788, 66963, 19733, 36326227, 4608086, 52915980
320, 32, 124151, 89807, 34344, 0, 0, 5622788, 45115, 22969, 33239135, 4241154, 52212524
320, 32, 124151, 89807, 34344, 0, 0, 5622788, 54246, 25392, 37435212, 4628437, 52242742
320, 32, 124151, 89807, 34344, 0, 0, 5622788, 73273, 118306, 35405661, 4305922, 51363285
2240, 32, 951611, 688307, 263304, 0, 0, 43091588, 43030, 26744, 88092710, 31573249, 209078946
2240, 32, 951611, 688307, 263304, 0, 0, 43091588, 51307, 19857, 87334344, 33546292, 205404063
2240, 32, 951611, 688307, 263304, 0, 0, 43091588, 34056, 21314, 86020384, 33158718, 207343892
2240, 32, 951611, 688307, 263304, 0, 0, 43091588, 34618, 21334, 84240620, 31146710, 187287103
2240, 32, 951611, 688307, 263304, 0, 0, 43091588, 47615, 17564, 79971972, 31319930, 219913645
4160, 32, 1779071, 1286807, 492264, 0, 0, 80560388, 42342, 25199, 149233352, 67296551, 459121734
4160, 32, 1779071, 1286807, 492264, 0, 0, 80560388, 45314, 17549, 159129176, 63513649, 394290318
4160, 32, 1779071, 1286807, 492264, 0, 0, 80560388, 35272, 26023, 161568624, 63847518, 348041208
4160, 32, 1779071, 1286807, 492264, 0, 0, 80560388, 46530, 18419, 155023148, 60114621, 394701672
4160, 32, 1779071, 1286807, 492264, 0, 0, 80560388, 35198, 22296, 162918478, 60673933, 385739733
6080, 32, 2606531, 1885307, 721224, 0, 0, 118029188, 44187, 62811, 204992516, 106688831, 590290888
6080, 32, 2606531, 1885307, 721224, 0, 0, 118029188, 44376, 34166, 228337042, 96452054, 477574903
6080, 32, 2606531, 1885307, 721224, 0, 0, 118029188, 35258, 47113, 223649928, 99991183, 603738081
6080, 32, 2606531, 1885307, 721224, 0, 0, 118029188, 49944, 19353, 223242978, 97611190, 475316712
6080, 32, 2606531, 1885307, 721224, 0, 0, 118029188, 34864, 27091, 229684036, 99948358, 499017376
8000, 32, 3433991, 2483807, 950184, 0, 0, 155497988, 36083, 26065, 280589713, 126601527, 800234468
8000, 32, 3433991, 2483807, 950184, 0, 0, 155497988, 47603, 23542, 297769400, 123990914, 696353848
8000, 32, 3433991, 2483807, 950184, 0, 0, 155497988, 42888, 17885, 298702214, 124503172, 795201600
8000, 32, 3433991, 2483807, 950184, 0, 0, 155497988, 35298, 29840, 292775080, 130116171, 614573711
8000, 32, 3433991, 2483807, 950184, 0, 0, 155497988, 36284, 19052, 294371594, 124490838, 621455445
9920, 32, 4261451, 3082307, 1179144, 0, 0, 192966788, 43095, 26782, 358877072, 161247156, 1004756799
9920, 32, 4261451, 3082307, 1179144, 0, 0, 192966788, 56857, 19737, 355583637, 156788079, 861195289
9920, 32, 4261451, 3082307, 1179144, 0, 0, 192966788, 36431, 21529, 377685219, 166356496, 855402376
9920, 32, 4261451, 3082307, 1179144, 0, 0, 192966788, 51247, 24030, 359215191, 152993439, 758077606
9920, 32, 4261451, 3082307, 1179144, 0, 0, 192966788, 46797, 26375, 352502845, 149282061, 833595632
11840, 32, 5088911, 3680807, 1408104, 0, 0, 230435588, 44434, 23981, 435402267, 179607553, 1202278783
11840, 32, 5088911, 3680807, 1408104, 0, 0, 230435588, 37562, 30602, 435178467, 182167257, 918164104
11840, 32, 5088911, 3680807, 1408104, 0, 0, 230435588, 37048, 20062, 441214841, 181024868, 1016723478
11840, 32, 5088911, 3680807, 1408104, 0, 0, 230435588, 35544, 22689, 425410097, 188499615, 1028891955
11840, 32, 5088911, 3680807, 1408104, 0, 0, 230435588, 35972, 18153, 416595191, 180872884, 905650595
13760, 32, 5916371, 4279307, 1637064, 0, 0, 267904388, 31812, 25229, 496077088, 220953292, 1375858691
13760, 32, 5916371, 4279307, 1637064, 0, 0, 267904388, 37540, 29553, 497396813, 210421502, 1046574985
13760, 32, 5916371, 4279307, 1637064, 0, 0, 267904388, 36797, 21513, 487874463, 239589907, 1157644620
13760, 32, 5916371, 4279307, 1637064, 0, 0, 267904388, 71267, 34448, 495789513, 218258191, 1066138715
13760, 32, 5916371, 4279307, 1637064, 0, 0, 267904388, 36613, 20297, 489053889, 209598652, 1049141505
17600, 32, 7571291, 5476307, 2094984, 0, 0, 342841988, 50085, 27424, 648147305, 266488963, 1787430621
17600, 32, 7571291, 5476307, 2094984, 0, 0, 342841988, 47293, 53744, 636028851, 262255650, 1524978860
17600, 32, 7571291, 5476307, 2094984, 0, 0, 342841988, 50433, 18936, 646330688, 259724197, 1493105368
17600, 32, 7571291, 5476307, 2094984, 0, 0, 342841988, 49275, 21619, 689515697, 276305960, 1586174208
17600, 32, 7571291, 5476307, 2094984, 0, 0, 342841988, 47257, 27172, 663503468, 285235970, 1345478812
19520, 32, 8398751, 6074807, 2323944, 0, 0, 380310788, 37972, 36052, 749912997, 301069432, 2033393772
19520, 32, 8398751, 6074807, 2323944, 0, 0, 380310788, 44374, 26004, 749613763, 282228422, 1740306594
19520, 32, 8398751, 6074807, 2323944, 0, 0, 380310788, 34382, 19259, 696362338, 284523749, 1616854365
19520, 32, 8398751, 6074807, 2323944, 0, 0, 380310788, 34999, 47628, 712429778, 280372457, 1488065673
19520, 32, 8398751, 6074807, 2323944, 0, 0, 380310788, 70468, 18432, 704780388, 281168022, 1490668602
23360, 32, 10053671, 7271807, 2781864, 0, 0, 455248388, 46525, 23099, 850793780, 333021165, 2356636209
23360, 32, 10053671, 7271807, 2781864, 0, 0, 455248388, 36530, 27962, 820627859, 342566956, 1763601207
23360, 32, 10053671, 7271807, 2781864, 0, 0, 455248388, 45370, 23505, 856417485, 409145895, 1980722988
23360, 32, 10053671, 7271807, 2781864, 0, 0, 455248388, 35660, 22932, 830510871, 326295618, 1938068290
23360, 32, 10053671, 7271807, 2781864, 0, 0, 455248388, 35931, 22294, 809780584, 332487022, 1731129740
27200, 32, 11708591, 8468807, 3239784, 0, 0, 530185988, 40886, 50577, 983338995, 383678378, 3045661316
27200, 32, 11708591, 8468807, 3239784, 0, 0, 530185988, 53471, 17964, 938266005, 420669747, 2258085535
27200, 32, 11708591, 8468807, 3239784, 0, 0, 530185988, 35606, 27212, 974892887, 393735622, 2309742034
27200, 32, 11708591, 8468807, 3239784, 0, 0, 530185988, 36341, 18636, 947155735, 387852802, 2092187603
27200, 32, 11708591, 8468807, 3239784, 0, 0, 530185988, 59549, 19577, 1005458741, 395556942, 2365664205
31040, 32, 13363511, 9665807, 3697704, 0, 0, 605123588, 47052, 24753, 1139733857, 451029067, 3105254579
31040, 32, 13363511, 9665807, 3697704, 0, 0, 605123588, 43139, 26243, 1105332001, 446512702, 2310941587
31040, 32, 13363511, 9665807, 3697704, 0, 0, 605123588, 36266, 22846, 1074372394, 451717782, 2520802311
31040, 32, 13363511, 9665807, 3697704, 0, 0, 605123588, 35848, 22778, 1117655267, 435046968, 2344971272
31040, 32, 13363511, 9665807, 3697704, 0, 0, 605123588, 46549, 22205, 1062056020, 434023626, 2605259620
