# 2017-05-12 03:03:35, n=10
320, 32, 1445, 1157, 288, 0, 0, 61508, 68485, 52713, 182668, 89290, 1664181
# 2017-05-12 03:04:47, n=10
320, 32, 1445, 1157, 288, 0, 0, 61508, 292185, 160893, 803136, 454877, 6216958
320, 32, 1445, 1157, 288, 0, 0, 61508, 354057, 177872, 863631, 402034, 3845729
320, 32, 1445, 1157, 288, 0, 0, 61508, 317115, 164324, 1175929, 473513, 4533874
320, 32, 1445, 1157, 288, 0, 0, 61508, 255415, 170184, 783929, 812805, 3639848
320, 32, 1445, 1157, 288, 0, 0, 61508, 271698, 111186, 764550, 276994, 3459199
# 2017-05-12 03:05:17, n=70
2240, 32, 10865, 8657, 2208, 0, 0, 455108, 256740, 145781, 4589554, 2260531, 19355018
2240, 32, 10865, 8657, 2208, 0, 0, 455108, 259765, 160767, 4531207, 2453474, 12739172
2240, 32, 10865, 8657, 2208, 0, 0, 455108, 217426, 160365, 5595169, 2405037, 13815399
2240, 32, 10865, 8657, 2208, 0, 0, 455108, 255151, 101256, 6260400, 1682673, 14561971
2240, 32, 10865, 8657, 2208, 0, 0, 455108, 266731, 174354, 5316704, 2253629, 15910380
# 2017-05-12 03:05:49, n=130
4160, 32, 20285, 16157, 4128, 0, 0, 848708, 192542, 111970, 10558318, 3691568, 31962972
4160, 32, 20285, 16157, 4128, 0, 0, 848708, 198614, 44518, 8603856, 1657100, 21663278
4160, 32, 20285, 16157, 4128, 0, 0, 848708, 197245, 37353, 8794154, 1185032, 25803553
4160, 32, 20285, 16157, 4128, 0, 0, 848708, 200596, 76823, 10756665, 1682192, 19479733
4160, 32, 20285, 16157, 4128, 0, 0, 848708, 120344, 43770, 6359828, 1130074, 11503232
# 2017-05-12 03:06:22, n=190
6080, 32, 29705, 23657, 6048, 0, 0, 1242308, 190686, 42371, 14045154, 1623477, 38062721
6080, 32, 29705, 23657, 6048, 0, 0, 1242308, 192328, 53528, 12500714, 1916306, 29787166
6080, 32, 29705, 23657, 6048, 0, 0, 1242308, 211451, 104975, 12472185, 4851746, 43239043
6080, 32, 29705, 23657, 6048, 0, 0, 1242308, 214843, 66238, 13392886, 2429556, 30255190
6080, 32, 29705, 23657, 6048, 0, 0, 1242308, 186587, 48042, 12810876, 2668613, 30393603
# 2017-05-12 03:06:54, n=250
8000, 32, 39125, 31157, 7968, 0, 0, 1635908, 179508, 31205, 19368933, 1523230, 36934511
8000, 32, 39125, 31157, 7968, 0, 0, 1635908, 104566, 64427, 8806934, 3681112, 26918439
8000, 32, 39125, 31157, 7968, 0, 0, 1635908, 46187, 40271, 4269589, 1541177, 9205130
8000, 32, 39125, 31157, 7968, 0, 0, 1635908, 185917, 32922, 15849530, 2311637, 24046030
8000, 32, 39125, 31157, 7968, 0, 0, 1635908, 146013, 44923, 17046020, 2694320, 29409123
# 2017-05-12 03:07:26, n=310
9920, 32, 48545, 38657, 9888, 0, 0, 2029508, 167183, 29014, 19817825, 1982780, 39105483
9920, 32, 48545, 38657, 9888, 0, 0, 2029508, 125968, 33167, 22241805, 2002534, 36084163
9920, 32, 48545, 38657, 9888, 0, 0, 2029508, 119652, 43068, 19271876, 2355156, 34913541
9920, 32, 48545, 38657, 9888, 0, 0, 2029508, 117862, 34883, 25557864, 1888180, 38731770
9920, 32, 48545, 38657, 9888, 0, 0, 2029508, 60057, 37358, 5144812, 2196921, 10565200
# 2017-05-12 03:07:58, n=370
11840, 32, 57965, 46157, 11808, 0, 0, 2423108, 121805, 222326, 22466337, 2171317, 43040941
11840, 32, 57965, 46157, 11808, 0, 0, 2423108, 122932, 29800, 25475962, 1964740, 41913308
11840, 32, 57965, 46157, 11808, 0, 0, 2423108, 121409, 41679, 20510486, 3030305, 33144679
11840, 32, 57965, 46157, 11808, 0, 0, 2423108, 60663, 21337, 5267684, 1822729, 12526951
11840, 32, 57965, 46157, 11808, 0, 0, 2423108, 111937, 45447, 22320800, 4190922, 30121944
# 2017-05-12 03:08:30, n=430
13760, 32, 67385, 53657, 13728, 0, 0, 2816708, 58990, 21255, 5675489, 2066350, 20300778
13760, 32, 67385, 53657, 13728, 0, 0, 2816708, 159926, 31973, 20620829, 3195021, 40512662
13760, 32, 67385, 53657, 13728, 0, 0, 2816708, 935436, 32559, 26681216, 2992377, 39268560
13760, 32, 67385, 53657, 13728, 0, 0, 2816708, 98762, 35158, 24515486, 2756023, 37541249
13760, 32, 67385, 53657, 13728, 0, 0, 2816708, 163168, 42333, 24640330, 4162975, 34223675
# 2017-05-12 03:09:03, n=490
15680, 32, 76805, 61157, 15648, 0, 0, 3210308, 52744, 23122, 28142945, 2208324, 44964668
15680, 32, 76805, 61157, 15648, 0, 0, 3210308, 71726, 22767, 25856130, 2885122, 38950187
15680, 32, 76805, 61157, 15648, 0, 0, 3210308, 120390, 39657, 24404438, 3377310, 36695801
15680, 32, 76805, 61157, 15648, 0, 0, 3210308, 99732, 38765, 25559498, 3383297, 39752189
15680, 32, 76805, 61157, 15648, 0, 0, 3210308, 113564, 32781, 25832275, 3129338, 35829216
# 2017-05-12 03:09:35, n=550
17600, 32, 86225, 68657, 17568, 0, 0, 3603908, 54775, 23508, 29882236, 2976795, 50722046
17600, 32, 86225, 68657, 17568, 0, 0, 3603908, 84626, 23990, 28104584, 2718585, 44760769
17600, 32, 86225, 68657, 17568, 0, 0, 3603908, 55265, 30498, 30738198, 2720341, 44250172
17600, 32, 86225, 68657, 17568, 0, 0, 3603908, 93260, 29124, 24869160, 2868439, 43213211
17600, 32, 86225, 68657, 17568, 0, 0, 3603908, 66518, 35714, 30531161, 3645130, 39920368
# 2017-05-12 03:10:07, n=610
19520, 32, 95645, 76157, 19488, 0, 0, 3997508, 63767, 53905, 33143845, 3142524, 55910161
19520, 32, 95645, 76157, 19488, 0, 0, 3997508, 53916, 26899, 31637259, 3021434, 49133321
19520, 32, 95645, 76157, 19488, 0, 0, 3997508, 53895, 28013, 32537694, 2979339, 51205842
19520, 32, 95645, 76157, 19488, 0, 0, 3997508, 46509, 36303, 6777625, 2657415, 17594721
19520, 32, 95645, 76157, 19488, 0, 0, 3997508, 71009, 26880, 30688598, 3522814, 42664049
# 2017-05-12 03:10:39, n=670
21440, 32, 105065, 83657, 21408, 0, 0, 4391108, 72705, 26615, 30608004, 3253026, 55268959
21440, 32, 105065, 83657, 21408, 0, 0, 4391108, 77695, 25582, 11917755, 3254111, 20377358
21440, 32, 105065, 83657, 21408, 0, 0, 4391108, 36087, 20363, 7429292, 3037730, 15008480
21440, 32, 105065, 83657, 21408, 0, 0, 4391108, 43454, 20080, 8400372, 3748580, 18707052
21440, 32, 105065, 83657, 21408, 0, 0, 4391108, 53317, 30404, 35679057, 3349384, 45742839
# 2017-05-12 03:11:12, n=730
23360, 32, 114485, 91157, 23328, 0, 0, 4784708, 58342, 49168, 32337421, 3385172, 57748335
23360, 32, 114485, 91157, 23328, 0, 0, 4784708, 51641, 33290, 10034167, 3703428, 21910195
23360, 32, 114485, 91157, 23328, 0, 0, 4784708, 59177, 33713, 32082363, 3689777, 47316752
23360, 32, 114485, 91157, 23328, 0, 0, 4784708, 59506, 175182, 33432943, 3356219, 48908637
23360, 32, 114485, 91157, 23328, 0, 0, 4784708, 86226, 24575, 38182222, 3611635, 47601767
# 2017-05-12 03:11:44, n=790
25280, 32, 123905, 98657, 25248, 0, 0, 5178308, 72386, 21300, 31277098, 4124164, 58912368
25280, 32, 123905, 98657, 25248, 0, 0, 5178308, 58697, 25669, 29860589, 3743166, 46275055
25280, 32, 123905, 98657, 25248, 0, 0, 5178308, 53704, 26308, 30761227, 3667252, 46915855
25280, 32, 123905, 98657, 25248, 0, 0, 5178308, 100232, 20641, 33172174, 3661557, 53046578
25280, 32, 123905, 98657, 25248, 0, 0, 5178308, 64068, 29814, 11437683, 4006251, 22443689
# 2017-05-12 03:12:16, n=850
27200, 32, 133325, 106157, 27168, 0, 0, 5571908, 59773, 23876, 30630585, 4236438, 55658139
27200, 32, 133325, 106157, 27168, 0, 0, 5571908, 46196, 18100, 24895755, 3876335, 42151091
27200, 32, 133325, 106157, 27168, 0, 0, 5571908, 74607, 38540, 37125531, 4237249, 51947159
27200, 32, 133325, 106157, 27168, 0, 0, 5571908, 48216, 17659, 36737460, 3849847, 53185496
27200, 32, 133325, 106157, 27168, 0, 0, 5571908, 62658, 20525, 36318747, 4056998, 51167038
# 2017-05-12 03:12:48, n=910
29120, 32, 142745, 113657, 29088, 0, 0, 5965508, 44701, 20274, 29781111, 4175760, 56050379
29120, 32, 142745, 113657, 29088, 0, 0, 5965508, 73041, 23774, 40414622, 4895422, 67054379
29120, 32, 142745, 113657, 29088, 0, 0, 5965508, 74098, 22097, 12555547, 4214525, 26247475
29120, 32, 142745, 113657, 29088, 0, 0, 5965508, 50062, 18402, 35049053, 4178975, 51191182
29120, 32, 142745, 113657, 29088, 0, 0, 5965508, 47867, 32219, 16570610, 6103307, 26429610
# 2017-05-12 03:13:21, n=970
31040, 32, 152165, 121157, 31008, 0, 0, 6359108, 56711, 18299, 34496552, 4537541, 62179394
31040, 32, 152165, 121157, 31008, 0, 0, 6359108, 55730, 25579, 34955019, 5007001, 51255985
31040, 32, 152165, 121157, 31008, 0, 0, 6359108, 69950, 30200, 34011922, 4472549, 52522481
31040, 32, 152165, 121157, 31008, 0, 0, 6359108, 63583, 17177, 32743727, 4453857, 52313166
31040, 32, 152165, 121157, 31008, 0, 0, 6359108, 64705, 22062, 32516355, 4551939, 44864293
