inputs, outputs, ngates, nxors, nands, nors, nnots, size, time_encrypt_in, time_decrypt_in, time_garble, time_eval, time_send
6400, 32, 5507240, 3210287, 2179095, 36480, 81378, 286488028, 94227, 56873, 522716748, 222842307, 1405598918
6400, 32, 5507240, 3210287, 2179095, 36480, 81378, 286488028, 72730, 46181, 559459159, 231037998, 1149746236
6400, 32, 5507240, 3210287, 2179095, 36480, 81378, 286488028, 78338, 36628, 545728328, 218805777, 1449928677
6400, 32, 5507240, 3210287, 2179095, 36480, 81378, 286488028, 93582, 45259, 557120706, 220893597, 1279985656
6400, 32, 5507240, 3210287, 2179095, 36480, 81378, 286488028, 87832, 32883, 547229177, 230496306, 1141254219
12800, 32, 9823840, 6327687, 3365095, 36480, 94578, 482180828, 75450, 49539, 891071658, 358289529, 2105195485
12800, 32, 9823840, 6327687, 3365095, 36480, 94578, 482180828, 69209, 34427, 874662723, 361640599, 1835971978
12800, 32, 9823840, 6327687, 3365095, 36480, 94578, 482180828, 67346, 40396, 882598774, 365992110, 1854199480
12800, 32, 9823840, 6327687, 3365095, 36480, 94578, 482180828, 80124, 32743, 869753023, 355440270, 2014981322
19200, 32, 14140440, 9445087, 4551095, 36480, 107778, 677873628, 96679, 37095, 1199186866, 479766633, 2868732436
19200, 32, 14140440, 9445087, 4551095, 36480, 107778, 677873628, 68387, 37562, 1196137497, 491625152, 2536036792
19200, 32, 14140440, 9445087, 4551095, 36480, 107778, 677873628, 66408, 31926, 1197895393, 488541623, 2548372906
19200, 32, 14140440, 9445087, 4551095, 36480, 107778, 677873628, 65352, 34198, 1172242043, 486123358, 2799318561
25600, 32, 18457040, 12562487, 5737095, 36480, 120978, 873566428, 70727, 48662, 1497394755, 622689989, 3206738413
25600, 32, 18457040, 12562487, 5737095, 36480, 120978, 873566428, 81885, 52249, 1509904229, 618670892, 3553721338
25600, 32, 18457040, 12562487, 5737095, 36480, 120978, 873566428, 68345, 36770, 1512873781, 623920787, 3703582196
25600, 32, 18457040, 12562487, 5737095, 36480, 120978, 873566428, 92448, 258211, 1519440282, 724115428,4085073531
32000, 32, 22773640, 15679887, 6923095, 36480, 134178, 1069259228, 107562, 39140, 1850715979, 743913370,    5158714309
32000, 32, 22773640, 15679887, 6923095, 36480, 134178, 1069259228, 70016, 39160, 1823492525, 745111369,     4361316886
32000, 32, 22773640, 15679887, 6923095, 36480, 134178, 1069259228, 76294, 37514, 1822226328, 768160740,     4321147006
