# 2017-05-16 03:42:30, n=288
32, 32, 4536262, 3023995, 1467877, 12160, 32230, 217750644, 46501, 28706, 424597141, 187547484, 1154154250
32, 32, 4536262, 3023995, 1467877, 12160, 32230, 217750644, 58627, 27937, 420024129, 177680163, 886966146
32, 32, 4536262, 3023995, 1467877, 12160, 32230, 217750644, 38353, 27802, 411274065, 174691628, 970607872
32, 32, 4536262, 3023995, 1467877, 12160, 32230, 217750644, 53951, 19376, 423763761, 177552442, 904919652
32, 32, 4536262, 3023995, 1467877, 12160, 32230, 217750644, 36272, 23715, 413487774, 168902145, 998226470
