inputs, outputs, ngates, nxors, nands, nors, nnots, size, time_encrypt_in, time_decrypt_in, time_garble, time_eval, time_send
320, 32, 7430, 338, 5634, 567, 891, 590060, 1140430, 410111, 10597523, 958796, 22247130
320, 32, 7430, 338, 5634, 567, 891, 590060, 6247910, 439852, 14308012, 1318488, 33460806
320, 32, 7430, 338, 5634, 567, 891, 590060, 2656287, 511090, 10564964, 1765685, 35155028
320, 32, 7430, 338, 5634, 567, 891, 590060, 1305542, 559360, 11270954, 1519017, 19929017
320, 32, 7430, 338, 5634, 567, 891, 590060, 1371619, 366966, 3229541, 1139634, 9039593
1600, 32, 40310, 1698, 30674, 3087, 4851, 3201580, 3383551, 786623, 39106649, 3117935, 68704585
1600, 32, 40310, 1698, 30674, 3087, 4851, 3201580, 2632373, 915488, 10297148, 3356951, 25020185
1600, 32, 40310, 1698, 30674, 3087, 4851, 3201580, 3809631, 1421927, 38548696, 3288146, 58312158
1600, 32, 40310, 1698, 30674, 3087, 4851, 3201580, 2510325, 1054649, 18435377, 3856473, 34981440
1600, 32, 40310, 1698, 30674, 3087, 4851, 3201580, 2417976, 1055425, 9013634, 3491595, 23218954
3200, 32, 81410, 3398, 61974, 6237, 9801, 6465980, 4184722, 1719192, 47413382, 6335046, 95855041
3200, 32, 81410, 3398, 61974, 6237, 9801, 6465980, 3971884, 2264152, 30119697, 8536446, 58197634
3200, 32, 81410, 3398, 61974, 6237, 9801, 6465980, 3777702, 2679587, 22499459, 6635906, 50283479
3200, 32, 81410, 3398, 61974, 6237, 9801, 6465980, 2937528, 1654582, 49930267, 9099254, 77829656
3200, 32, 81410, 3398, 61974, 6237, 9801, 6465980, 3016770, 1622717, 52495382, 6370375, 77684670
4800, 32, 122510, 5098, 93274, 9387, 14751, 9730380, 5500899, 4380818, 51342301, 9664253, 110588140
4800, 32, 122510, 5098, 93274, 9387, 14751, 9730380, 5288670, 3556599, 41860317, 10091601, 89758389
4800, 32, 122510, 5098, 93274, 9387, 14751, 9730380, 4364698, 2382364, 36366721, 10031693, 100413936
4800, 32, 122510, 5098, 93274, 9387, 14751, 9730380, 4464986, 2350046, 47468299, 9508644, 88647456
4800, 32, 122510, 5098, 93274, 9387, 14751, 9730380, 4349919, 2232680, 56706780, 9512940, 91726724
6400, 32, 163610, 6798, 124574, 12537, 19701, 12994780, 7385636, 3038180, 37084382, 12770653, 107929235
6400, 32, 163610, 6798, 124574, 12537, 19701, 12994780, 6350804, 2997449, 63242718, 13173932, 114830650
6400, 32, 163610, 6798, 124574, 12537, 19701, 12994780, 6003958, 4634755, 61349634, 15382806, 112247713
6400, 32, 163610, 6798, 124574, 12537, 19701, 12994780, 5896003, 4895385, 60790511, 12733379, 110681230
6400, 32, 163610, 6798, 124574, 12537, 19701, 12994780, 7202510, 4706805, 67518437, 13499913, 113823375
8000, 32, 204710, 8498, 155874, 15687, 24651, 16259180, 9488960, 3805976, 54057284, 15903375, 142896328
8000, 32, 204710, 8498, 155874, 15687, 24651, 16259180, 7432074, 3754837, 73761605, 19448248, 139920092
8000, 32, 204710, 8498, 155874, 15687, 24651, 16259180, 7185720, 5835055, 71636393, 19245046, 133756045
8000, 32, 204710, 8498, 155874, 15687, 24651, 16259180, 7340626, 12453340, 61879871, 18478051, 118373594
8000, 32, 204710, 8498, 155874, 15687, 24651, 16259180, 7273462, 3773732, 69943234, 19431425, 129121099
9600, 32, 245810, 10198, 187174, 18837, 29601, 19523580, 11621686, 7167184, 69511008, 19087613, 171262355
9600, 32, 245810, 10198, 187174, 18837, 29601, 19523580, 9188733, 4873742, 71133908, 19708750, 143975233
9600, 32, 245810, 10198, 187174, 18837, 29601, 19523580, 8740370, 4686282, 74621748, 19057888, 147384883
9600, 32, 245810, 10198, 187174, 18837, 29601, 19523580, 8725395, 4545117, 80081323, 20201340, 150808721
9600, 32, 245810, 10198, 187174, 18837, 29601, 19523580, 8681768, 9805039, 59298621, 20397843, 118141995
11200, 32, 286910, 11898, 218474, 21987, 34551, 22787980, 12903163, 8192340, 84167163, 22351584, 199675590
11200, 32, 286910, 11898, 218474, 21987, 34551, 22787980, 10334880, 8105161, 78297217, 22931480, 159116193
11200, 32, 286910, 11898, 218474, 21987, 34551, 22787980, 10045210, 8555488, 66028465, 28925711, 146399677
11200, 32, 286910, 11898, 218474, 21987, 34551, 22787980, 10524688, 5255170, 63638691, 22289334, 138141280
11200, 32, 286910, 11898, 218474, 21987, 34551, 22787980, 10223001, 9080460, 82445887, 27881303, 179336388
12800, 32, 328010, 13598, 249774, 25137, 39501, 26052380, 23110818, 9423931, 77921298, 25991699, 204842613
12800, 32, 328010, 13598, 249774, 25137, 39501, 26052380, 11494010, 9683968, 122661406, 32834174, 237722079
12800, 32, 328010, 13598, 249774, 25137, 39501, 26052380, 11628823, 8448712, 72836447, 32410663, 175007486
12800, 32, 328010, 13598, 249774, 25137, 39501, 26052380, 11732713, 6560683, 93548679, 29057091, 183947607
12800, 32, 328010, 13598, 249774, 25137, 39501, 26052380, 11703153, 9281542, 78545444, 25651670, 192256578
16000, 32, 410210, 16998, 312374, 31437, 49401, 32581180, 57141772, 29854428, 98435886, 45000501, 334559856
16000, 32, 410210, 16998, 312374, 31437, 49401, 32581180, 17104851, 7360195, 104828649, 32439665, 234419373
16000, 32, 410210, 16998, 312374, 31437, 49401, 32581180, 14598554, 7490284, 99429239, 32405031, 225220077
16000, 32, 410210, 16998, 312374, 31437, 49401, 32581180, 14177444, 7419432, 120349342, 35271845, 252133261
16000, 32, 410210, 16998, 312374, 31437, 49401, 32581180, 13975193, 27175829, 113780419, 37191773, 222410427
17600, 32, 451310, 18698, 343674, 34587, 54351, 35845580, 20753969, 8303139, 106385249, 36247992, 292153229
17600, 32, 451310, 18698, 343674, 34587, 54351, 35845580, 15733660, 8319383, 104725945, 38534998, 230543650
17600, 32, 451310, 18698, 343674, 34587, 54351, 35845580, 15079511, 16763640, 112160370, 36908113, 238176269
17600, 32, 451310, 18698, 343674, 34587, 54351, 35845580, 15027959, 12821320, 92612876, 35567727, 227471601
17600, 32, 451310, 18698, 343674, 34587, 54351, 35845580, 16586521, 24436768, 106213159, 45035638, 246963037
19200, 32, 492410, 20398, 374974, 37737, 59301, 39109980, 26186361, 14041875, 119499126, 38484310, 302163990
19200, 32, 492410, 20398, 374974, 37737, 59301, 39109980, 16518745, 9071590, 113804986, 40422509, 264789384
19200, 32, 492410, 20398, 374974, 37737, 59301, 39109980, 19320075, 8860115, 122398087, 38552093, 311375574
19200, 32, 492410, 20398, 374974, 37737, 59301, 39109980, 19378904, 9161201, 131150717, 39079560, 303292863
19200, 32, 492410, 20398, 374974, 37737, 59301, 39109980, 17670968, 15757511, 113744798, 39936570, 249096729
20800, 32, 533510, 22098, 406274, 40887, 64251, 42374380, 23883599, 9770923, 113174770, 41996234, 305684495
20800, 32, 533510, 22098, 406274, 40887, 64251, 42374380, 18041840, 18367067, 121577125, 43192222, 263329244
20800, 32, 533510, 22098, 406274, 40887, 64251, 42374380, 18110847, 9926507, 128561490, 44903555, 347071829
20800, 32, 533510, 22098, 406274, 40887, 64251, 42374380, 18116768, 9622815, 139209482, 44768514, 279320739
20800, 32, 533510, 22098, 406274, 40887, 64251, 42374380, 21595946, 14131936, 132390271, 42983788, 277736131
22400, 32, 574610, 23798, 437574, 44037, 69201, 45638780, 27214470, 10999510, 134078382, 46475313, 377558775
22400, 32, 574610, 23798, 437574, 44037, 69201, 45638780, 18861935, 10402017, 129508474, 45519233, 302154080
22400, 32, 574610, 23798, 437574, 44037, 69201, 45638780, 22096251, 16251095, 137205550, 44912628, 365886580
22400, 32, 574610, 23798, 437574, 44037, 69201, 45638780, 19320953, 26454446, 136375113, 49474626, 307739549
22400, 32, 574610, 23798, 437574, 44037, 69201, 45638780, 23989467, 11942248, 139538029, 48780709, 320047463
24000, 32, 615710, 25498, 468874, 47187, 74151, 48903180, 30451799, 12915552, 134709684, 50090951, 395087321
24000, 32, 615710, 25498, 468874, 47187, 74151, 48903180, 21158525, 12031105, 137021481, 49464477, 317485015
24000, 32, 615710, 25498, 468874, 47187, 74151, 48903180, 21118314, 17595405, 148248789, 47601314, 355738229
24000, 32, 615710, 25498, 468874, 47187, 74151, 48903180, 20660499, 11329852, 134652020, 47740794, 309399190
24000, 32, 615710, 25498, 468874, 47187, 74151, 48903180, 20867673, 12277849, 147695608, 49711829, 308634269
25600, 32, 656810, 27198, 500174, 50337, 79101, 52167580, 31632123, 18192679, 140942689, 50292562, 396872685
25600, 32, 656810, 27198, 500174, 50337, 79101, 52167580, 29975502, 11926389, 150747012, 54121228, 381503087
25600, 32, 656810, 27198, 500174, 50337, 79101, 52167580, 21876098, 11860759, 145300234, 55488014, 374797424
25600, 32, 656810, 27198, 500174, 50337, 79101, 52167580, 21915165, 18715651, 153132484, 50952402, 319598549
25600, 32, 656810, 27198, 500174, 50337, 79101, 52167580, 22864202, 20239914, 150606678, 58629602, 325368855
27200, 32, 697910, 28898, 531474, 53487, 84051, 55431980, 34006746, 12921889, 143599174, 53558731, 398441288
27200, 32, 697910, 28898, 531474, 53487, 84051, 55431980, 26735774, 12654817, 153574046, 58513225, 408304488
27200, 32, 697910, 28898, 531474, 53487, 84051, 55431980, 28627927, 19662073, 155539907, 53044088, 382084240
27200, 32, 697910, 28898, 531474, 53487, 84051, 55431980, 24198915, 12881033, 157402839, 53788814, 399928171
27200, 32, 697910, 28898, 531474, 53487, 84051, 55431980, 29418555, 12619830, 166726531, 55018241, 365015950
28800, 32, 739010, 30598, 562774, 56637, 89001, 58696380, 32372281, 50378683, 147135675, 57262978, 447586855
28800, 32, 739010, 30598, 562774, 56637, 89001, 58696380, 27955417, 13687073, 158480835, 59959971, 390619883
28800, 32, 739010, 30598, 562774, 56637, 89001, 58696380, 25730220, 21085965, 156396974, 61440626, 413190568
28800, 32, 739010, 30598, 562774, 56637, 89001, 58696380, 26605667, 20915109, 167974586, 58921475, 383896474
28800, 32, 739010, 30598, 562774, 56637, 89001, 58696380, 26465596, 20779346, 175354740, 57844675, 394656621
30400, 32, 780110, 32298, 594074, 59787, 93951, 61960780, 38391487, 14336014, 171294121, 59916932, 488628305
30400, 32, 780110, 32298, 594074, 59787, 93951, 61960780, 28627625, 16702284, 181388312, 61752665, 459790953
30400, 32, 780110, 32298, 594074, 59787, 93951, 61960780, 33199363, 34484509, 198089434, 80448844, 499158125
30400, 32, 780110, 32298, 594074, 59787, 93951, 61960780, 29230559, 14564597, 190225725, 63282279, 483527524
30400, 32, 780110, 32298, 594074, 59787, 93951, 61960780, 28832554, 16908068, 176691843, 68169833, 423800935
32000, 32, 821210, 33998, 625374, 62937, 98901, 65225180, 36328854, 17938966, 174392982, 62481092, 509265109
32000, 32, 821210, 33998, 625374, 62937, 98901, 65225180, 34114489, 23208147, 175828965, 66236239, 440364419
32000, 32, 821210, 33998, 625374, 62937, 98901, 65225180, 30418361, 34397629, 183060089, 95596652, 560508142
32000, 32, 821210, 33998, 625374, 62937, 98901, 65225180, 30317748, 23063249, 188789936, 64020113, 424698593
32000, 32, 821210, 33998, 625374, 62937, 98901, 65225180, 29887113, 25821617, 181557844, 68605711, 425038896
