inputs, outputs, ngates, nxors, nands, nors, nnots, size, time_encrypt_in, time_decrypt_in, time_garble, time_eval, time_send
320, 32, 124151, 89807, 34344, 0, 0, 5633228, 403993, 175258, 17474189, 4673696, 38699627
320, 32, 124151, 89807, 34344, 0, 0, 5633228, 414833, 206367, 39506503, 4267427, 58472403
320, 32, 124151, 89807, 34344, 0, 0, 5633228, 511833, 224166, 46037513, 4277871, 58797539
320, 32, 124151, 89807, 34344, 0, 0, 5633228, 382528, 324951, 13451285, 4332527, 27705784
1600, 32, 675791, 488807, 186984, 0, 0, 30658828, 1963874, 1244018, 65438932, 25502373, 118938771
1600, 32, 675791, 488807, 186984, 0, 0, 30658828, 1694233, 1061340, 82916553, 25918633, 153894566
1600, 32, 675791, 488807, 186984, 0, 0, 30658828, 1953684, 1198721, 61203803, 22308566, 146790443
1600, 32, 675791, 488807, 186984, 0, 0, 30658828, 1519293, 1211143, 65538024, 22488869, 117576604
3200, 32, 1365341, 987557, 377784, 0, 0, 61940828, 3668512, 2456767, 134478892, 45836982, 274276601
3200, 32, 1365341, 987557, 377784, 0, 0, 61940828, 2889468, 1606554, 137732432, 45764243, 324079226
3200, 32, 1365341, 987557, 377784, 0, 0, 61940828, 2889620, 1706495, 121916386, 45762756, 263672494
3200, 32, 1365341, 987557, 377784, 0, 0, 61940828, 2902522, 2440902, 124040367, 46994240, 258631331
4800, 32, 2054891, 1486307, 568584, 0, 0, 93222828, 5246581, 2286495, 178660162, 72395241, 481712267
4800, 32, 2054891, 1486307, 568584, 0, 0, 93222828, 4343457, 2268742, 171952600, 75333691, 498643219
4800, 32, 2054891, 1486307, 568584, 0, 0, 93222828, 4371409, 3554220, 177444426, 70755506, 446911892
4800, 32, 2054891, 1486307, 568584, 0, 0, 93222828, 4339557, 2342524, 183167039, 73066905, 452035603
6400, 32, 2744441, 1985057, 759384, 0, 0, 124504828, 6644260, 3037437, 229896194, 100513973, 588721995
6400, 32, 2744441, 1985057, 759384, 0, 0, 124504828, 5876716, 3002382, 226377931, 105543072, 580292063
6400, 32, 2744441, 1985057, 759384, 0, 0, 124504828, 5816155, 4655961, 234103427, 104001965, 591391661
6400, 32, 2744441, 1985057, 759384, 0, 0, 124504828, 5773721, 4584775, 230223616, 103477030, 515845700
8000, 32, 3433991, 2483807, 950184, 0, 0, 155786828, 7522760, 3707837, 282889542, 126803957, 660789353
8000, 32, 3433991, 2483807, 950184, 0, 0, 155786828, 7203495, 5837966, 286602206, 122650921, 700726025
8000, 32, 3433991, 2483807, 950184, 0, 0, 155786828, 7291909, 3862950, 279795996, 122195941, 802382630
8000, 32, 3433991, 2483807, 950184, 0, 0, 155786828, 7197062, 3701358, 279633148, 124985053, 659605362
9600, 32, 4123541, 2982557, 1140984, 0, 0, 187068828, 8885455, 4843128, 342327696, 145729811, 872266020
9600, 32, 4123541, 2982557, 1140984, 0, 0, 187068828, 8657666, 7269968, 337104677, 151355666, 822759552
9600, 32, 4123541, 2982557, 1140984, 0, 0, 187068828, 8714633, 6991739, 347654637, 151899142, 843026838
9600, 32, 4123541, 2982557, 1140984, 0, 0, 187068828, 8674691, 6800967, 337599844, 146902989, 851772974
11200, 32, 4813091, 3481307, 1331784, 0, 0, 218350828, 10316112, 5486899, 388791358, 159139559, 993979623
11200, 32, 4813091, 3481307, 1331784, 0, 0, 218350828, 10215128, 5745446, 383840579, 169158983, 944784869
11200, 32, 4813091, 3481307, 1331784, 0, 0, 218350828, 11011887, 8440870, 389972324, 169778470, 965011895
11200, 32, 4813091, 3481307, 1331784, 0, 0, 218350828, 10485394, 8205978, 381191931, 165910840, 861086534
12800, 32, 5502641, 3980057, 1522584, 0, 0, 249632828, 11893518, 6115465, 442155821, 196107099, 987479299
12800, 32, 5502641, 3980057, 1522584, 0, 0, 249632828, 11927359, 9339210, 434449091, 184861178, 1103920803
12800, 32, 5502641, 3980057, 1522584, 0, 0, 249632828, 13411272, 9201543, 446700161, 185859181, 1122527807
12800, 32, 5502641, 3980057, 1522584, 0, 0, 249632828, 13339207, 9056354, 438326011, 188143663, 987335660
14400, 32, 6192191, 4478807, 1713384, 0, 0, 280914828, 13354855, 6614491, 490661356, 211018392, 1115637239
14400, 32, 6192191, 4478807, 1713384, 0, 0, 280914828, 13365764, 6726747, 485080241, 199877154, 1401346200
14400, 32, 6192191, 4478807, 1713384, 0, 0, 280914828, 15952438, 6782795, 492868671, 205868393, 1224819890
14400, 32, 6192191, 4478807, 1713384, 0, 0, 280914828, 13139187, 10494239, 484196913, 214581895, 1098360005
16000, 32, 6881741, 4977557, 1904184, 0, 0, 312196828, 14729346, 7516366, 537516752, 223175526, 1421763661
16000, 32, 6881741, 4977557, 1904184, 0, 0, 312196828, 14654014, 7849931, 541438587, 221724461, 1527004017
16000, 32, 6881741, 4977557, 1904184, 0, 0, 312196828, 17793624, 7452719, 549328570, 222145361, 1508861932
16000, 32, 6881741, 4977557, 1904184, 0, 0, 312196828, 17651154, 7628338, 534240243, 286693340, 1206776555
17600, 32, 7571291, 5476307, 2094984, 0, 0, 343478828, 17420190, 8210888, 709360975, 245894379, 1657616739
17600, 32, 7571291, 5476307, 2094984, 0, 0, 343478828, 16008732, 7860954, 600864496, 238862741, 1683274143
17600, 32, 7571291, 5476307, 2094984, 0, 0, 343478828, 16012128, 8182122, 606770297, 245986480, 1479529771
17600, 32, 7571291, 5476307, 2094984, 0, 0, 343478828, 18469748, 7963196, 590444058, 245193880, 1334551362
19200, 32, 8260841, 5975057, 2285784, 0, 0, 374760828, 17873392, 8886817, 661621513, 264684263, 1680532957
19200, 32, 8260841, 5975057, 2285784, 0, 0, 374760828, 21317774, 14013312, 654111216, 295514436, 1602491870
19200, 32, 8260841, 5975057, 2285784, 0, 0, 374760828, 18461930, 9050723, 690288586, 267184874, 1945671929
19200, 32, 8260841, 5975057, 2285784, 0, 0, 374760828, 20806935, 8930293, 667977597, 270244052, 1473898169
20800, 32, 8950391, 6473807, 2476584, 0, 0, 406042828, 19138193, 9602589, 870471341, 284907956, 1979455465
20800, 32, 8950391, 6473807, 2476584, 0, 0, 406042828, 18982618, 9736956, 691368960, 293113659, 1715544613
20800, 32, 8950391, 6473807, 2476584, 0, 0, 406042828, 22078863, 9245536, 706197286, 288667187, 1729332712
20800, 32, 8950391, 6473807, 2476584, 0, 0, 406042828, 18892335, 8935203, 689055768, 289946392, 1556454915
22400, 32, 9639941, 6972557, 2667384, 0, 0, 437324828, 24152396, 9910109, 761931736, 304261834, 1973440773
22400, 32, 9639941, 6972557, 2667384, 0, 0, 437324828, 20370969, 10100920, 766024051, 314453877, 1873795474
22400, 32, 9639941, 6972557, 2667384, 0, 0, 437324828, 20668502, 10153488, 758037195, 300541426, 2099392591
22400, 32, 9639941, 6972557, 2667384, 0, 0, 437324828, 22348062, 11769308, 748514840, 376305845, 1716049302
24000, 32, 10329491, 7471307, 2858184, 0, 0, 468606828, 22239781, 11320514, 831602351, 344435072, 1876668030
24000, 32, 10329491, 7471307, 2858184, 0, 0, 468606828, 25829333, 10539439, 801550564, 326826768, 2225203032
24000, 32, 10329491, 7471307, 2858184, 0, 0, 468606828, 21942426, 10878216, 802697147, 331302455, 1995192080
24000, 32, 10329491, 7471307, 2858184, 0, 0, 468606828, 21181233, 10953298, 800823239, 392858342, 2057064809
25600, 32, 11019041, 7970057, 3048984, 0, 0, 499888828, 23661003, 11757997, 870681235, 356067068, 1967090291
25600, 32, 11019041, 7970057, 3048984, 0, 0, 499888828, 23172043, 11982815, 923183791, 428308134, 2210370894
25600, 32, 11019041, 7970057, 3048984, 0, 0, 499888828, 26996134, 13151664, 940560553, 378366851, 2343969397
25600, 32, 11019041, 7970057, 3048984, 0, 0, 499888828, 23951204, 11748677, 891966775, 351518612, 1967535875
28800, 32, 12398141, 8967557, 3430584, 0, 0, 562452828, 26996297, 14366782, 992714946, 387014070, 2487544404
28800, 32, 12398141, 8967557, 3430584, 0, 0, 562452828, 25379117, 14185222, 944723953, 398807436, 2323653275
28800, 32, 12398141, 8967557, 3430584, 0, 0, 562452828, 25179913, 20696594, 945782544, 395644832, 2344457398
28800, 32, 12398141, 8967557, 3430584, 0, 0, 562452828, 26561808, 24180631, 975453160, 456232181, 2393643801
30400, 32, 13087691, 9466307, 3621384, 0, 0, 593734828, 30653061, 13858992, 1098822825, 422544622, 2415023646
30400, 32, 13087691, 9466307, 3621384, 0, 0, 593734828, 27772215, 15092519, 1025102388, 404824758, 2807719080
30400, 32, 13087691, 9466307, 3621384, 0, 0, 593734828, 28583401, 13642483, 1011349965, 431957923, 2549876014
30400, 32, 13087691, 9466307, 3621384, 0, 0, 593734828, 34789121, 22618602, 1026069370, 441976414, 2503118593
32000, 32, 13777241, 9965057, 3812184, 0, 0, 625016828, 30046348, 21489002, 1272532527, 442487416, 2613833662
32000, 32, 13777241, 9965057, 3812184, 0, 0, 625016828, 28543471, 22756336, 1070100110, 442749875, 2630079539
32000, 32, 13777241, 9965057, 3812184, 0, 0, 625016828, 33077391, 23624742, 1056120271, 433703590, 2653731299
32000, 32, 13777241, 9965057, 3812184, 0, 0, 625016828, 29633299, 25515741, 1085035084, 546223877, 2642608517
