# 2017-05-16 04:47:16, n=10
#320, 32, 124151, 89807, 34344, 0, 0, 5633228, 514293, 261711, 35059901, 4303587, 66869520
320, 32, 124151, 89807, 34344, 0, 0, 5633228, 647340, 213051, 38608226, 4331578, 59592050
320, 32, 124151, 89807, 34344, 0, 0, 5633228, 394636, 309391, 16235170, 4938903, 32855491
320, 32, 124151, 89807, 34344, 0, 0, 5633228, 317130, 213952, 10742661, 4220113, 21946984
320, 32, 124151, 89807, 34344, 0, 0, 5633228, 546018, 228180, 17971609, 4809097, 40790277
# 2017-05-16 04:48:05, n=50
#1600, 32, 675791, 488807, 186984, 0, 0, 30658828, 2486298, 1590708, 74257280, 23301779, 191732497
1600, 32, 675791, 488807, 186984, 0, 0, 30658828, 2012600, 812250, 65956572, 24936322, 174675982
1600, 32, 675791, 488807, 186984, 0, 0, 30658828, 1709999, 849434, 68741809, 22407544, 184132329
1600, 32, 675791, 488807, 186984, 0, 0, 30658828, 1849811, 1211454, 84997594, 22680418, 149528282
1600, 32, 675791, 488807, 186984, 0, 0, 30658828, 1562677, 885755, 85629373, 23956821, 170782612
# 2017-05-16 04:48:55, n=100
#3200, 32, 1365341, 987557, 377784, 0, 0, 61940828, 5127432, 4962254, 116689407, 46265656, 374946206
3200, 32, 1365341, 987557, 377784, 0, 0, 61940828, 3508074, 1609144, 123800161, 45413705, 319227171
3200, 32, 1365341, 987557, 377784, 0, 0, 61940828, 2930465, 1523800, 124189302, 45884181, 321396838
3200, 32, 1365341, 987557, 377784, 0, 0, 61940828, 4769749, 1645267, 127201968, 49086989, 355448604
3200, 32, 1365341, 987557, 377784, 0, 0, 61940828, 3182889, 1531101, 123945276, 46091618, 275443566
# 2017-05-16 04:49:45, n=150
#4800, 32, 2054891, 1486307, 568584, 0, 0, 93222828, 4976830, 4223158, 169056143, 77657400, 574114929
4800, 32, 2054891, 1486307, 568584, 0, 0, 93222828, 4927939, 2309484, 177741743, 73348302, 465022715
4800, 32, 2054891, 1486307, 568584, 0, 0, 93222828, 4339271, 2302184, 188059678, 76599020, 463481179
4800, 32, 2054891, 1486307, 568584, 0, 0, 93222828, 4363647, 3700080, 178208728, 75628334, 456059940
4800, 32, 2054891, 1486307, 568584, 0, 0, 93222828, 4348567, 3429451, 176791150, 68137105, 434932867
# 2017-05-16 04:50:38, n=200
#6400, 32, 2744441, 1985057, 759384, 0, 0, 124504828, 9152445, 3366100, 234436371, 111746351, 797830603
6400, 32, 2744441, 1985057, 759384, 0, 0, 124504828, 6295279, 3307954, 246905578, 108391416, 644332361
6400, 32, 2744441, 1985057, 759384, 0, 0, 124504828, 5801824, 4640761, 247287711, 108526620, 612422106
6400, 32, 2744441, 1985057, 759384, 0, 0, 124504828, 7075233, 4587738, 242283687, 105091269, 610585641
6400, 32, 2744441, 1985057, 759384, 0, 0, 124504828, 6000191, 4845099, 247591310, 109662100, 570040678
# 2017-05-16 04:51:32, n=250
#8000, 32, 3433991, 2483807, 950184, 0, 0, 155786828, 9269459, 7454341, 303245638, 136812262, 1020150519
8000, 32, 3433991, 2483807, 950184, 0, 0, 155786828, 7551425, 4024233, 304090308, 128742323, 695854830
8000, 32, 3433991, 2483807, 950184, 0, 0, 155786828, 8371062, 5895912, 303401698, 134713074, 769508899
8000, 32, 3433991, 2483807, 950184, 0, 0, 155786828, 7283499, 5858129, 297760996, 136110426, 757687764
8000, 32, 3433991, 2483807, 950184, 0, 0, 155786828, 7212811, 5659856, 291638270, 133941708, 659265499
# 2017-05-16 04:52:26, n=300
#9600, 32, 4123541, 2982557, 1140984, 0, 0, 187068828, 11567615, 12482758, 363534533, 160575503, 1192437616
9600, 32, 4123541, 2982557, 1140984, 0, 0, 187068828, 8873077, 4890461, 354507837, 156865160, 929276118
9600, 32, 4123541, 2982557, 1140984, 0, 0, 187068828, 8684094, 7058353, 354233082, 154341675, 894639179
9600, 32, 4123541, 2982557, 1140984, 0, 0, 187068828, 8982941, 7950434, 367383404, 152408738, 906710785
9600, 32, 4123541, 2982557, 1140984, 0, 0, 187068828, 8801746, 7033409, 373596457, 153159816, 838749737
# 2017-05-16 04:53:22, n=350
#11200, 32, 4813091, 3481307, 1331784, 0, 0, 218350828, 14181092, 6465979, 436334829, 170109192, 1396887525
11200, 32, 4813091, 3481307, 1331784, 0, 0, 218350828, 11525388, 6058016, 420952039, 175630112, 1070007664
11200, 32, 4813091, 3481307, 1331784, 0, 0, 218350828, 10409745, 7210370, 412325689, 179527802, 1049808758
11200, 32, 4813091, 3481307, 1331784, 0, 0, 218350828, 10408345, 8252147, 411889788, 188773482, 1040189229
11200, 32, 4813091, 3481307, 1331784, 0, 0, 218350828, 17646176, 8982897, 420286060, 181077442, 961363928
# 2017-05-16 04:54:21, n=400
#12800, 32, 5502641, 3980057, 1522584, 0, 0, 249632828, 17670519, 7918661, 491306399, 200436704, 1617888451
12800, 32, 5502641, 3980057, 1522584, 0, 0, 249632828, 13761119, 6830308, 483178247, 213062241, 1239704615
12800, 32, 5502641, 3980057, 1522584, 0, 0, 249632828, 12492281, 7619419, 469032944, 208941755, 1317985630
12800, 32, 5502641, 3980057, 1522584, 0, 0, 249632828, 12908619, 6075562, 481769859, 199373354, 1347516945
12800, 32, 5502641, 3980057, 1522584, 0, 0, 249632828, 11773687, 7067967, 471883584, 239547388, 1212344628
# 2017-05-16 04:55:21, n=450
#14400, 32, 6192191, 4478807, 1713384, 0, 0, 280914828, 19136122, 11473062, 587117856, 225516672, 1878372635
14400, 32, 6192191, 4478807, 1713384, 0, 0, 280914828, 13397080, 8365090, 529904990, 235909993, 1377152434
14400, 32, 6192191, 4478807, 1713384, 0, 0, 280914828, 15208988, 6737744, 534649575, 225010729, 1341965684
14400, 32, 6192191, 4478807, 1713384, 0, 0, 280914828, 13286410, 10611488, 521609527, 224377345, 1475754497
14400, 32, 6192191, 4478807, 1713384, 0, 0, 280914828, 17668709, 23098273, 534137003, 280635293, 1299749284
# 2017-05-16 04:56:24, n=500
#16000, 32, 6881741, 4977557, 1904184, 0, 0, 312196828, 21435481, 7826819, 611849215, 255778890, 2009747530
16000, 32, 6881741, 4977557, 1904184, 0, 0, 312196828, 14871845, 7516678, 597610908, 258510864, 1500904760
16000, 32, 6881741, 4977557, 1904184, 0, 0, 312196828, 14680696, 8913072, 600731626, 263201419, 1476394214
16000, 32, 6881741, 4977557, 1904184, 0, 0, 312196828, 18131930, 12303653, 595705210, 281822314, 1459629787
16000, 32, 6881741, 4977557, 1904184, 0, 0, 312196828, 16677423, 11587837, 661566794, 255040755, 1499098622
# 2017-05-16 04:57:26, n=550
#17600, 32, 7571291, 5476307, 2094984, 0, 0, 343478828, 22974298, 8391697, 646740567, 265818186, 2140676963
17600, 32, 7571291, 5476307, 2094984, 0, 0, 343478828, 16549975, 8346930, 654134831, 266461993, 1667569983
17600, 32, 7571291, 5476307, 2094984, 0, 0, 343478828, 17399296, 14238655, 652731351, 273213918, 1590394978
17600, 32, 7571291, 5476307, 2094984, 0, 0, 343478828, 16419909, 14339100, 645815326, 292685538, 1588587847
17600, 32, 7571291, 5476307, 2094984, 0, 0, 343478828, 19773981, 9318532, 646583688, 263390504, 1792566487
# 2017-05-16 04:58:36, n=600
#19200, 32, 8260841, 5975057, 2285784, 0, 0, 374760828, 70615812, 9139006, 854855932, 282186686, 2595388923
19200, 32, 8260841, 5975057, 2285784, 0, 0, 374760828, 21278371, 9985423, 703835528, 303211264, 1606238320
19200, 32, 8260841, 5975057, 2285784, 0, 0, 374760828, 18433957, 9068764, 710228326, 291560973, 1962256042
19200, 32, 8260841, 5975057, 2285784, 0, 0, 374760828, 22057673, 8947036, 712826937, 309368061, 1745340214
19200, 32, 8260841, 5975057, 2285784, 0, 0, 374760828, 19034679, 16623540, 719072783, 383517625, 1719413971
# 2017-05-16 04:59:51, n=650
#20800, 32, 8950391, 6473807, 2476584, 0, 0, 406042828, 41379305, 9977166, 913575256, 316892893, 2756829960
20800, 32, 8950391, 6473807, 2476584, 0, 0, 406042828, 19205152, 9853479, 753034384, 304973799, 1945777116
20800, 32, 8950391, 6473807, 2476584, 0, 0, 406042828, 19103428, 9666450, 768267667, 319913048, 1895391723
20800, 32, 8950391, 6473807, 2476584, 0, 0, 406042828, 20341115, 15828931, 765282593, 319239851, 1893680956
20800, 32, 8950391, 6473807, 2476584, 0, 0, 406042828, 22796362, 9679534, 758139915, 309524207, 2112868411
# 2017-05-16 05:01:03, n=700
#22400, 32, 9639941, 6972557, 2667384, 0, 0, 437324828, 54549345, 9929252, 850685398, 312046112, 2642716825
22400, 32, 9639941, 6972557, 2667384, 0, 0, 437324828, 19954951, 10560016, 747393880, 332066205, 1633800063
22400, 32, 9639941, 6972557, 2667384, 0, 0, 437324828, 24761451, 15356400, 759662030, 326050737, 1840993105
22400, 32, 9639941, 6972557, 2667384, 0, 0, 437324828, 23208579, 17847226, 774339236, 307481490, 1862079496
22400, 32, 9639941, 6972557, 2667384, 0, 0, 437324828, 19892320, 17336419, 763912653, 348320714, 1672934748
# 2017-05-16 05:02:15, n=750
#24000, 32, 10329491, 7471307, 2858184, 0, 0, 468606828, 42231336, 10804052, 843384548, 328040155, 2807868138
24000, 32, 10329491, 7471307, 2858184, 0, 0, 468606828, 21874177, 10945427, 829065987, 332580831, 1833045077
24000, 32, 10329491, 7471307, 2858184, 0, 0, 468606828, 21205384, 16429898, 795722319, 340625827, 1966631100
24000, 32, 10329491, 7471307, 2858184, 0, 0, 468606828, 21502913, 11033787, 807204988, 330876031, 1938030419
24000, 32, 10329491, 7471307, 2858184, 0, 0, 468606828, 24477448, 10166164, 828671539, 367915832, 1816849798
# 2017-05-16 05:03:30, n=800
#25600, 32, 11019041, 7970057, 3048984, 0, 0, 499888828, 29060842, 10932374, 899403374, 346716861, 3047158900
25600, 32, 11019041, 7970057, 3048984, 0, 0, 499888828, 23259015, 16543349, 877205294, 364900898, 1921098416
25600, 32, 11019041, 7970057, 3048984, 0, 0, 499888828, 23158763, 20528103, 857545484, 351037822, 2090019895
25600, 32, 11019041, 7970057, 3048984, 0, 0, 499888828, 23295196, 16467702, 858322166, 352501678, 2090893183
25600, 32, 11019041, 7970057, 3048984, 0, 0, 499888828, 22332063, 16680505, 865522994, 346752936, 1896362276
# 2017-05-16 05:04:46, n=850
#27200, 32, 11708591, 8468807, 3239784, 0, 0, 531170828, 47779662, 11692561, 954664941, 366310683, 3176625869
27200, 32, 11708591, 8468807, 3239784, 0, 0, 531170828, 24501048, 15275269, 912065615, 376175777, 2017381275
27200, 32, 11708591, 8468807, 3239784, 0, 0, 531170828, 24029226, 20383029, 918741354, 377459155, 2200778300
27200, 32, 11708591, 8468807, 3239784, 0, 0, 531170828, 24522635, 17906368, 917953762, 370398305, 2196018813
27200, 32, 11708591, 8468807, 3239784, 0, 0, 531170828, 24411382, 11790645, 916892085, 427305341, 2429646571
# 2017-05-16 05:06:02, n=900
#28800, 32, 12398141, 8967557, 3430584, 0, 0, 562452828, 33773341, 12298207, 980169809, 393589001, 3430170496
28800, 32, 12398141, 8967557, 3430584, 0, 0, 562452828, 26002378, 15079643, 1072224123, 394115064, 2243625869
28800, 32, 12398141, 8967557, 3430584, 0, 0, 562452828, 26125758, 11901073, 960439032, 383702673, 2580988765
28800, 32, 12398141, 8967557, 3430584, 0, 0, 562452828, 26435067, 13156475, 967453185, 392118906, 2619569190
28800, 32, 12398141, 8967557, 3430584, 0, 0, 562452828, 27999939, 22318206, 978461604, 476011009, 2216854221
# 2017-05-16 15:34:24, n=950
# 2017-05-16 15:38:12, n=1000
# 2017-05-16 17:00:55, n=950
#30400, 32, 13087691, 9466307, 3621384, 0, 0, 593734828, 37430061, 13814105, 1089039139, 440374171, 3840653054
30400, 32, 13087691, 9466307, 3621384, 0, 0, 593734828, 29087651, 14411375, 1180258233, 471810815, 2854590811
30400, 32, 13087691, 9466307, 3621384, 0, 0, 593734828, 28304125, 15815195, 1088070735, 484662605, 2677814976
30400, 32, 13087691, 9466307, 3621384, 0, 0, 593734828, 29344219, 25904048, 1097176525, 575314585, 2841577181
30400, 32, 13087691, 9466307, 3621384, 0, 0, 593734828, 35108410, 22866081, 1330371566, 490812892, 2863158090
# 2017-05-16 17:02:27, n=1000
32000, 32, 13777241, 9965057, 3812184, 0, 0, 625016828, 39549939, 17069089, 1215514189, 502232031, 4438495532
32000, 32, 13777241, 9965057, 3812184, 0, 0, 625016828, 29467058, 16721947, 1117681218, 452181135, 2905513087
32000, 32, 13777241, 9965057, 3812184, 0, 0, 625016828, 35765524, 20177718, 1164190655, 481844482, 2870617924
32000, 32, 13777241, 9965057, 3812184, 0, 0, 625016828, 33828200, 31722118, 1204026153, 528987595, 3679461088
#32000, 32, 13777241, 9965057, 3812184, 0, 0, 625016828, 30940282, 22712920, 1383181850, 563208418, 10170338357
