## 2017-05-16 21:46:05, n=100
#64, 32, 5507240, 3210287, 2179095, 36480, 81378, 286488028, 87414, 40076, 560246934, 226264381, 1544544049
#64, 32, 5507240, 3210287, 2179095, 36480, 81378, 286488028, 71928, 36101, 557969291, 228712539, 1142375541
#64, 32, 5507240, 3210287, 2179095, 36480, 81378, 286488028, 71015, 42144, 553128995, 220471061, 1389348983
#64, 32, 5507240, 3210287, 2179095, 36480, 81378, 286488028, 66991, 52986, 546985916, 218918157, 1269942952
#64, 32, 5507240, 3210287, 2179095, 36480, 81378, 286488028, 91147, 35686, 544267208, 225819616, 1136284236
## 2017-05-16 21:47:24, n=200
#64, 32, 9823840, 6327687, 3365095, 36480, 94578, 482180828, 84109, 32919, 894792705, 367511311, 2746675626
#64, 32, 9823840, 6327687, 3365095, 36480, 94578, 482180828, 71712, 34036, 874848095, 359508067, 1839817768
#64, 32, 9823840, 6327687, 3365095, 36480, 94578, 482180828, 64870, 75248, 893594411, 358605729, 1833670124
#64, 32, 9823840, 6327687, 3365095, 36480, 94578, 482180828, 72219, 36728, 872611320, 357938700, 1840532139
#64, 32, 9823840, 6327687, 3365095, 36480, 94578, 482180828, 65864, 43427, 871920126, 354629940, 2268362352
## 2017-05-16 21:48:48, n=300
#64, 32, 14140440, 9445087, 4551095, 36480, 107778, 677873628, 69397, 37737, 1208872158, 479161347, 3796928997
#64, 32, 14140440, 9445087, 4551095, 36480, 107778, 677873628, 78143, 33867, 1196837728, 484346229, 2545925516
#64, 32, 14140440, 9445087, 4551095, 36480, 107778, 677873628, 75268, 38877, 1193685773, 505017103, 2550097653
#64, 32, 14140440, 9445087, 4551095, 36480, 107778, 677873628, 68094, 60702, 1200124398, 496673958, 2560027456
#64, 32, 14140440, 9445087, 4551095, 36480, 107778, 677873628, 69189, 34323, 1179562412, 487985464, 2803270471
## 2017-05-16 21:50:27, n=400
#64, 32, 18457040, 12562487, 5737095, 36480, 120978, 873566428, 90786, 35577, 1562322850, 615323970, 4295339383
#64, 32, 18457040, 12562487, 5737095, 36480, 120978, 873566428, 70083, 38424, 1509891338, 622449138, 3661226156
#64, 32, 18457040, 12562487, 5737095, 36480, 120978, 873566428, 85816, 37934, 1524900440, 628391448, 4239787052
#64, 32, 18457040, 12562487, 5737095, 36480, 120978, 873566428, 84079, 83450, 1524787550, 892511123, 6372512184
#64, 32, 18457040, 12562487, 5737095, 36480, 120978, 873566428, 64901, 105678, 1556120935, 932919573, 11696034567
## 2017-05-16 21:52:02, n=500
#64, 32, 22773640, 15679887, 6923095, 36480, 134178, 1069259228, 84296, 47169, 1881726821, 748734179, 5158439898
#64, 32, 22773640, 15679887, 6923095, 36480, 134178, 1069259228, 106275, 35878, 1857428638, 741330950, 4431340745
#64, 32, 22773640, 15679887, 6923095, 36480, 134178, 1069259228, 63112, 32785, 1817165409, 756494823, 4320543978
#64, 32, 22773640, 15679887, 6923095, 36480, 134178, 1069259228, 66301, 35119, 1822702778, 760969453, 3950019689
#64, 32, 22773640, 15679887, 6923095, 36480, 134178, 1069259228, 123871, 55961, 1847293396, 836287623, 4388511713
# 2017-05-16 22:51:13, n=100
64, 32, 5507240, 3210287, 2179095, 36480, 81378, 286488028, 94227, 56873, 522716748, 222842307, 1405598918
64, 32, 5507240, 3210287, 2179095, 36480, 81378, 286488028, 72730, 46181, 559459159, 231037998, 1149746236
64, 32, 5507240, 3210287, 2179095, 36480, 81378, 286488028, 78338, 36628, 545728328, 218805777, 1449928677
64, 32, 5507240, 3210287, 2179095, 36480, 81378, 286488028, 93582, 45259, 557120706, 220893597, 1279985656
64, 32, 5507240, 3210287, 2179095, 36480, 81378, 286488028, 87832, 32883, 547229177, 230496306, 1141254219
# 2017-05-16 22:52:29, n=200
#64, 32, 9823840, 6327687, 3365095, 36480, 94578, 482180828, 71579, 47504, 859818615, 359115440, 2624288056
64, 32, 9823840, 6327687, 3365095, 36480, 94578, 482180828, 75450, 49539, 891071658, 358289529, 2105195485
64, 32, 9823840, 6327687, 3365095, 36480, 94578, 482180828, 69209, 34427, 874662723, 361640599, 1835971978
64, 32, 9823840, 6327687, 3365095, 36480, 94578, 482180828, 67346, 40396, 882598774, 365992110, 1854199480
64, 32, 9823840, 6327687, 3365095, 36480, 94578, 482180828, 80124, 32743, 869753023, 355440270, 2014981322
# 2017-05-16 22:53:51, n=300
#64, 32, 14140440, 9445087, 4551095, 36480, 107778, 677873628, 96307, 40204, 1204744496, 494314284, 3746967056
64, 32, 14140440, 9445087, 4551095, 36480, 107778, 677873628, 96679, 37095, 1199186866, 479766633, 2868732436
64, 32, 14140440, 9445087, 4551095, 36480, 107778, 677873628, 68387, 37562, 1196137497, 491625152, 2536036792
64, 32, 14140440, 9445087, 4551095, 36480, 107778, 677873628, 66408, 31926, 1197895393, 488541623, 2548372906
64, 32, 14140440, 9445087, 4551095, 36480, 107778, 677873628, 65352, 34198, 1172242043, 486123358, 2799318561
# 2017-05-16 22:55:20, n=400
#64, 32, 18457040, 12562487, 5737095, 36480, 120978, 873566428, 60393, 56016, 1537042654, 617127254, 4202167145
64, 32, 18457040, 12562487, 5737095, 36480, 120978, 873566428, 70727, 48662, 1497394755, 622689989, 3206738413
64, 32, 18457040, 12562487, 5737095, 36480, 120978, 873566428, 81885, 52249, 1509904229, 618670892, 3553721338
64, 32, 18457040, 12562487, 5737095, 36480, 120978, 873566428, 68345, 36770, 1512873781, 623920787, 3703582196
64, 32, 18457040, 12562487, 5737095, 36480, 120978, 873566428, 92448, 258211, 1519440282, 724115428,4085073531
# 2017-05-16 22:59:23, n=500
64, 32, 22773640, 15679887, 6923095, 36480, 134178, 1069259228, 107562, 39140, 1850715979, 743913370,    5158714309
64, 32, 22773640, 15679887, 6923095, 36480, 134178, 1069259228, 70016, 39160, 1823492525, 745111369,     4361316886
64, 32, 22773640, 15679887, 6923095, 36480, 134178, 1069259228, 76294, 37514, 1822226328, 768160740,     4321147006
#64, 32, 22773640, 15679887, 6923095, 36480, 134178, 1069259228, 69231, 46854, 1834113628, 1057168952,    9580775068
#64, 32, 22773640, 15679887, 6923095, 36480, 134178, 1069259228, 83571, 4987667, 1886188152, 944150650, 149020053008
