# 2017-05-16 16:01:10, n=10
320, 32, 545016, 138077, 371723, 12160, 23056, 36985468, 374537, 178331, 107455072, 35100112, 215677439
320, 32, 545016, 138077, 371723, 12160, 23056, 36985468, 321973, 157858, 99441981, 38469603, 200628983
320, 32, 545016, 138077, 371723, 12160, 23056, 36985468, 379190, 238501, 105858929, 35000223, 201330834
320, 32, 545016, 138077, 371723, 12160, 23056, 36985468, 331179, 192496, 101975176, 38648059, 184517263
320, 32, 545016, 138077, 371723, 12160, 23056, 36985468, 318649, 295648, 123581514, 34980597, 197726915
# 2017-05-16 16:01:46, n=50
1600, 32, 1119296, 553317, 529443, 12160, 24376, 63042748, 2385315, 1547784, 142148687, 58608110, 332508138
1600, 32, 1119296, 553317, 529443, 12160, 24376, 63042748, 1946185, 874478, 153210458, 54357531, 345104620
1600, 32, 1119296, 553317, 529443, 12160, 24376, 63042748, 1690677, 1274725, 153811031, 57107947, 317732713
1600, 32, 1119296, 553317, 529443, 12160, 24376, 63042748, 1728087, 1214225, 144531430, 53858525, 308488420
1600, 32, 1119296, 553317, 529443, 12160, 24376, 63042748, 1490084, 988054, 142832220, 59337357, 310396714
# 2017-05-16 16:02:35, n=100
#3200, 32, 1837146, 1072367, 726593, 12160, 26026, 95614348, 4060762, 4363392, 193834693, 87876404, 523257047
3200, 32, 1837146, 1072367, 726593, 12160, 26026, 95614348, 4134256, 1679892, 205514520, 89983333, 451128745
3200, 32, 1837146, 1072367, 726593, 12160, 26026, 95614348, 2928171, 2231187, 197557075, 82221227, 427761833
3200, 32, 1837146, 1072367, 726593, 12160, 26026, 95614348, 7381831, 2326408, 304521701, 111307309, 613532572
3200, 32, 1837146, 1072367, 726593, 12160, 26026, 95614348, 2901933, 1581574, 199617711, 83598996, 460103641
# 2017-05-16 16:03:26, n=150
#4800, 32, 2554996, 1591417, 923743, 12160, 27676, 128185948, 5242648, 3992492, 247388260, 111140510, 743059060
4800, 32, 2554996, 1591417, 923743, 12160, 27676, 128185948, 4929190, 2359144, 276327702, 108708534, 651557199
4800, 32, 2554996, 1591417, 923743, 12160, 27676, 128185948, 4327067, 3422946, 255693186, 112927785, 601571366
4800, 32, 2554996, 1591417, 923743, 12160, 27676, 128185948, 4335117, 3379454, 259928273, 105511981, 696159925
4800, 32, 2554996, 1591417, 923743, 12160, 27676, 128185948, 4382409, 3638277, 250822561, 108890381, 552139333
# 2017-05-16 16:04:19, n=200
#6400, 32, 3272846, 2110467, 1120893, 12160, 29326, 160757548, 7351790, 7961741, 296218367, 128254931, 920918168
6400, 32, 3272846, 2110467, 1120893, 12160, 29326, 160757548, 6102257, 2971773, 311302868, 132680608, 698394784
6400, 32, 3272846, 2110467, 1120893, 12160, 29326, 160757548, 5746345, 3059841, 335117972, 126449200, 860140491
6400, 32, 3272846, 2110467, 1120893, 12160, 29326, 160757548, 5860781, 3229864, 317138700, 137494726, 751618042
6400, 32, 3272846, 2110467, 1120893, 12160, 29326, 160757548, 5772596, 4556012, 325051607, 135061972, 700901323
# 2017-05-16 16:05:02, n=250
#8000, 32, 3990696, 2629517, 1318043, 12160, 30976, 193329148, 8806093, 10192754, 352726772, 160733306, 1110632771
8000, 32, 3990696, 2629517, 1318043, 12160, 30976, 193329148, 7608120, 5750218, 386688534, 162238868, 830528914
8000, 32, 3990696, 2629517, 1318043, 12160, 30976, 193329148, 7383444, 3747606, 383531151, 148066055, 1010091959
8000, 32, 3990696, 2629517, 1318043, 12160, 30976, 193329148, 7341270, 3769631, 369279577, 156418649, 879920576
8000, 32, 3990696, 2629517, 1318043, 12160, 30976, 193329148, 7273637, 5750527, 363298142, 163027299, 964158436
# 2017-05-16 16:05:58, n=300
#9600, 32, 4708546, 3148567, 1515193, 12160, 32626, 225900748, 11181108, 10431513, 408458434, 171863499, 1317278089
9600, 32, 4708546, 3148567, 1515193, 12160, 32626, 225900748, 9269748, 4572802, 422821347, 171518366, 1062550146
9600, 32, 4708546, 3148567, 1515193, 12160, 32626, 225900748, 9050567, 4429015, 418353985, 170054792, 1127400904
9600, 32, 4708546, 3148567, 1515193, 12160, 32626, 225900748, 8855717, 6958939, 430871923, 185834416, 1020129784
9600, 32, 4708546, 3148567, 1515193, 12160, 32626, 225900748, 8727976, 10631948, 426094562, 177928838, 933047022
# 2017-05-16 16:06:55, n=350
#11200, 32, 5426396, 3667617, 1712343, 12160, 34276, 258472348, 13496071, 5317445, 466323184, 192968254, 1472435649
11200, 32, 5426396, 3667617, 1712343, 12160, 34276, 258472348, 11401424, 5292045, 511609921, 194788907, 1214415139
11200, 32, 5426396, 3667617, 1712343, 12160, 34276, 258472348, 10982514, 5455047, 475616852, 193220344, 1293232114
11200, 32, 5426396, 3667617, 1712343, 12160, 34276, 258472348, 10444190, 8598138, 505772481, 208251380, 1197153416
11200, 32, 5426396, 3667617, 1712343, 12160, 34276, 258472348, 10876591, 8735834, 483169405, 241705635, 1086960874
# 2017-05-16 16:07:55, n=400
#12800, 32, 6144246, 4186667, 1909493, 12160, 35926, 291043948, 15024120, 15302926, 536876640, 216348719, 1685189547
12800, 32, 6144246, 4186667, 1909493, 12160, 35926, 291043948, 11770999, 6158301, 546957116, 219140870, 1348863983
12800, 32, 6144246, 4186667, 1909493, 12160, 35926, 291043948, 11677572, 6672336, 532472358, 222653964, 1261331284
12800, 32, 6144246, 4186667, 1909493, 12160, 35926, 291043948, 11668396, 9259849, 553515550, 228713796, 1313666499
12800, 32, 6144246, 4186667, 1909493, 12160, 35926, 291043948, 11650697, 9282489, 532253374, 221138539, 1200918209
# 2017-05-16 16:08:57, n=450
#14400, 32, 6862096, 4705717, 2106643, 12160, 37576, 323615548, 23355004, 6889825, 590574854, 251089531, 1948756132
14400, 32, 6862096, 4705717, 2106643, 12160, 37576, 323615548, 16207641, 6840928, 591219801, 241357442, 1502842896
14400, 32, 6862096, 4705717, 2106643, 12160, 37576, 323615548, 13077216, 7706812, 603713466, 238691712, 1591088722
14400, 32, 6862096, 4705717, 2106643, 12160, 37576, 323615548, 13270426, 11776626, 592876178, 299884462, 1425786605
14400, 32, 6862096, 4705717, 2106643, 12160, 37576, 323615548, 13595558, 6917511, 736422921, 261220091, 1767403678
# 2017-05-16 16:10:01, n=500
#16000, 32, 7579946, 5224767, 2303793, 12160, 39226, 356187148, 20818855, 15152709, 686164618, 256687099, 2109896320
16000, 32, 7579946, 5224767, 2303793, 12160, 39226, 356187148, 14817148, 7142692, 653637039, 257717740, 1624342788
16000, 32, 7579946, 5224767, 2303793, 12160, 39226, 356187148, 17836011, 7541988, 664654094, 262454609, 1770453404
16000, 32, 7579946, 5224767, 2303793, 12160, 39226, 356187148, 18213544, 12309140, 658755391, 329225932, 1845833283
16000, 32, 7579946, 5224767, 2303793, 12160, 39226, 356187148, 16469044, 7378509, 791147531, 273413569, 1699906671
# 2017-05-16 16:11:12, n=550
#17600, 32, 8297796, 5743817, 2500943, 12160, 40876, 388758748, 34757303, 7992756, 859843862, 296267602, 2490396018
17600, 32, 8297796, 5743817, 2500943, 12160, 40876, 388758748, 26480063, 8174425, 708388647, 286666000, 1784215409
17600, 32, 8297796, 5743817, 2500943, 12160, 40876, 388758748, 19364319, 8176583, 708098446, 288112034, 1911095724
17600, 32, 8297796, 5743817, 2500943, 12160, 40876, 388758748, 16019756, 14117615, 709854867, 289060383, 1709182091
17600, 32, 8297796, 5743817, 2500943, 12160, 40876, 388758748, 16116002, 14494050, 703242798, 354270379, 1597659936
# 2017-05-16 16:12:24, n=600
#19200, 32, 9015646, 6262867, 2698093, 12160, 42526, 421330348, 25055026, 8738140, 996508193, 303467434, 2756089416
19200, 32, 9015646, 6262867, 2698093, 12160, 42526, 421330348, 17683123, 8394108, 749087107, 310317264, 1864873138
19200, 32, 9015646, 6262867, 2698093, 12160, 42526, 421330348, 17634175, 12472667, 771186660, 307458900, 2082748178
19200, 32, 9015646, 6262867, 2698093, 12160, 42526, 421330348, 17574691, 9029768, 777150387, 421245914, 2151140348
19200, 32, 9015646, 6262867, 2698093, 12160, 42526, 421330348, 22226478, 8826152, 854001763, 328034791, 1949805797
# 2017-05-16 16:13:37, n=650
#20800, 32, 9733496, 6781917, 2895243, 12160, 44176, 453901948, 27378528, 9716916, 879949686, 400124840, 2857908526
20800, 32, 9733496, 6781917, 2895243, 12160, 44176, 453901948, 19289822, 17654485, 832675919, 331634732, 1866126024
20800, 32, 9733496, 6781917, 2895243, 12160, 44176, 453901948, 19142605, 14098523, 832341878, 333431316, 2003653720
20800, 32, 9733496, 6781917, 2895243, 12160, 44176, 453901948, 22743281, 9869904, 842154819, 331284570, 2248007748
20800, 32, 9733496, 6781917, 2895243, 12160, 44176, 453901948, 18976392, 9262945, 981091434, 355020076, 1969601400
# 2017-05-16 16:14:52, n=700
#22400, 32, 10451346, 7300967, 3092393, 12160, 45826, 486473548, 27397458, 10642529, 942375181, 368197538, 3191315077
22400, 32, 10451346, 7300967, 3092393, 12160, 45826, 486473548, 27780203, 10523001, 884630093, 370303632, 1961591595
22400, 32, 10451346, 7300967, 3092393, 12160, 45826, 486473548, 20453053, 16133069, 881554349, 354678818, 2130397463
22400, 32, 10451346, 7300967, 3092393, 12160, 45826, 486473548, 25327499, 20737728, 887002570, 358611023, 2169957722
22400, 32, 10451346, 7300967, 3092393, 12160, 45826, 486473548, 20585551, 15782774, 890749738, 437031383, 1943733490
# 2017-05-16 16:16:12, n=750
#24000, 32, 11169196, 7820017, 3289543, 12160, 47476, 519045148, 40884594, 11022449, 980535145, 375846268, 3290652724
24000, 32, 11169196, 7820017, 3289543, 12160, 47476, 519045148, 22132586, 10798915, 941921825, 378639103, 2347058021
24000, 32, 11169196, 7820017, 3289543, 12160, 47476, 519045148, 22032584, 10624423, 941553105, 374207608, 2553385395
24000, 32, 11169196, 7820017, 3289543, 12160, 47476, 519045148, 24014319, 18432217, 926371694, 396970760, 3049305109
24000, 32, 11169196, 7820017, 3289543, 12160, 47476, 519045148, 21698343, 15109888, 1043830686, 576621586, 3944812267
# 2017-05-16 16:17:28, n=800
#25600, 32, 11887046, 8339067, 3486693, 12160, 49126, 551616748, 65374103, 12119316, 1109963353, 404272335, 3655714539
25600, 32, 11887046, 8339067, 3486693, 12160, 49126, 551616748, 23884341, 11437034, 994215921, 408205799, 2220334214
25600, 32, 11887046, 8339067, 3486693, 12160, 49126, 551616748, 23464394, 20022321, 986333227, 400542016, 2371248604
25600, 32, 11887046, 8339067, 3486693, 12160, 49126, 551616748, 27849053, 16926560, 991274137, 407557250, 2387051260
25600, 32, 11887046, 8339067, 3486693, 12160, 49126, 551616748, 23376662, 21593935, 1002088773, 487200080, 2379868504
# 2017-05-16 16:18:51, n=850
#27200, 32, 12604896, 8858117, 3683843, 12160, 50776, 584188348, 33353598, 12802905, 1068017311, 439658064, 3725209031
27200, 32, 12604896, 8858117, 3683843, 12160, 50776, 584188348, 25556382, 13843846, 1194713903, 433068808, 2473820031
27200, 32, 12604896, 8858117, 3683843, 12160, 50776, 584188348, 24922977, 20565304, 1047898782, 421616002, 2518871182
27200, 32, 12604896, 8858117, 3683843, 12160, 50776, 584188348, 25309877, 19310707, 1037116007, 419955180, 2545941534
27200, 32, 12604896, 8858117, 3683843, 12160, 50776, 584188348, 29383582, 20905857, 1056967436, 547612539, 2459204647
# 2017-05-16 16:20:20, n=900
#28800, 32, 13322746, 9377167, 3880993, 12160, 52426, 616759948, 32078177, 15691011, 1128293870, 526900972, 3819299961
28800, 32, 13322746, 9377167, 3880993, 12160, 52426, 616759948, 27127282, 19579023, 1348054980, 447636555, 3009855591
28800, 32, 13322746, 9377167, 3880993, 12160, 52426, 616759948, 26762052, 17611861, 1101690930, 443315754, 2693475358
28800, 32, 13322746, 9377167, 3880993, 12160, 52426, 616759948, 26810985, 22568150, 1136562733, 453835404, 2830577760
#28800, 32, 13322746, 9377167, 3880993, 12160, 52426, 616759948, 30898694, 39501518, 1106244278, 770426914, 8252886284
# 2017-05-16 16:22:43, n=950
# 2017-05-16 16:24:17, n=1000
# 2017-05-16 17:06:14, n=950
#30400, 32, 14040596, 9896217, 4078143, 12160, 54076, 649331548, 37128739, 13913644, 1266704834, 491887362, 4380872628
30400, 32, 14040596, 9896217, 4078143, 12160, 54076, 649331548, 28941930, 23381982, 1246237524, 495232787, 2746358139
30400, 32, 14040596, 9896217, 4078143, 12160, 54076, 649331548, 29462581, 21617642, 1260515807, 551223834, 3080956910
30400, 32, 14040596, 9896217, 4078143, 12160, 54076, 649331548, 32308693, 32294777, 1230411521, 572837112, 3240802226
30400, 32, 14040596, 9896217, 4078143, 12160, 54076, 649331548, 29396088, 22572410, 1405735957, 536952153, 2892464106
# 2017-05-16 17:07:46, n=1000
#32000, 32, 14758446, 10415267, 4275293, 12160, 55726, 681903148, 36834819, 15761944, 1324758908, 504171702, 4549426948
32000, 32, 14758446, 10415267, 4275293, 12160, 55726, 681903148, 30886886, 23144747, 1492720318, 538562848, 3082018883
32000, 32, 14758446, 10415267, 4275293, 12160, 55726, 681903148, 32327690, 24293664, 1352320611, 553056283, 3212031841
32000, 32, 14758446, 10415267, 4275293, 12160, 55726, 681903148, 31640987, 24154726, 1292349113, 646306892, 3676193776
#32000, 32, 14758446, 10415267, 4275293, 12160, 55726, 681903148, 37296959, 21324332, 1545406851, 778654748, 9818591679
